SET_ERROR_CODE 0
SET_XMDF_PATH ./zynq_design_1_mig_7series_0_0_xmdf.tcl
SET_PARAMETER component_name zynq_design_1_mig_7series_0_0
SET_PARAMETER xml_input_file ./zynq_design_1_mig_7series_0_0/mig.prj
