verilog work "../axi/ref_buf_to_axi_write_master.v"
verilog work "../axi/ipcore_dir/inter_con_core_zync/axi_inter_con_synth.v"
verilog work "../axi/ipcore_dir/ddr_mig_zync/ddr_mig/user_design/rtl/axi/mig_7series_v1_9_axi_ctrl_addr_decode.v"
verilog work "../axi/ipcore_dir/ddr_mig_zync/ddr_mig/user_design/rtl/axi/mig_7series_v1_9_axi_ctrl_read.v"
verilog work "../axi/ipcore_dir/ddr_mig_zync/ddr_mig/user_design/rtl/axi/mig_7series_v1_9_axi_ctrl_reg.v"
verilog work "../axi/ipcore_dir/ddr_mig_zync/ddr_mig/user_design/rtl/axi/mig_7series_v1_9_axi_ctrl_reg_bank.v"
verilog work "../axi/ipcore_dir/ddr_mig_zync/ddr_mig/user_design/rtl/axi/mig_7series_v1_9_axi_ctrl_top.v"
verilog work "../axi/ipcore_dir/ddr_mig_zync/ddr_mig/user_design/rtl/axi/mig_7series_v1_9_axi_ctrl_write.v"
verilog work "../axi/ipcore_dir/ddr_mig_zync/ddr_mig/user_design/rtl/axi/mig_7series_v1_9_axi_mc.v"
verilog work "../axi/ipcore_dir/ddr_mig_zync/ddr_mig/user_design/rtl/axi/mig_7series_v1_9_axi_mc_ar_channel.v"
verilog work "../axi/ipcore_dir/ddr_mig_zync/ddr_mig/user_design/rtl/axi/mig_7series_v1_9_axi_mc_aw_channel.v"
verilog work "../axi/ipcore_dir/ddr_mig_zync/ddr_mig/user_design/rtl/axi/mig_7series_v1_9_axi_mc_b_channel.v"
verilog work "../axi/ipcore_dir/ddr_mig_zync/ddr_mig/user_design/rtl/axi/mig_7series_v1_9_axi_mc_cmd_arbiter.v"
verilog work "../axi/ipcore_dir/ddr_mig_zync/ddr_mig/user_design/rtl/axi/mig_7series_v1_9_axi_mc_cmd_fsm.v"
verilog work "../axi/ipcore_dir/ddr_mig_zync/ddr_mig/user_design/rtl/axi/mig_7series_v1_9_axi_mc_cmd_translator.v"
verilog work "../axi/ipcore_dir/ddr_mig_zync/ddr_mig/user_design/rtl/axi/mig_7series_v1_9_axi_mc_incr_cmd.v"
verilog work "../axi/ipcore_dir/ddr_mig_zync/ddr_mig/user_design/rtl/axi/mig_7series_v1_9_axi_mc_r_channel.v"
verilog work "../axi/ipcore_dir/ddr_mig_zync/ddr_mig/user_design/rtl/axi/mig_7series_v1_9_axi_mc_simple_fifo.v"
verilog work "../axi/ipcore_dir/ddr_mig_zync/ddr_mig/user_design/rtl/axi/mig_7series_v1_9_axi_mc_w_channel.v"
verilog work "../axi/ipcore_dir/ddr_mig_zync/ddr_mig/user_design/rtl/axi/mig_7series_v1_9_axi_mc_wr_cmd_fsm.v"
verilog work "../axi/ipcore_dir/ddr_mig_zync/ddr_mig/user_design/rtl/axi/mig_7series_v1_9_axi_mc_wrap_cmd.v"
verilog work "../axi/ipcore_dir/ddr_mig_zync/ddr_mig/user_design/rtl/axi/mig_7series_v1_9_ddr_a_upsizer.v"
verilog work "../axi/ipcore_dir/ddr_mig_zync/ddr_mig/user_design/rtl/axi/mig_7series_v1_9_ddr_axi_register_slice.v"
verilog work "../axi/ipcore_dir/ddr_mig_zync/ddr_mig/user_design/rtl/axi/mig_7series_v1_9_ddr_axi_upsizer.v"
verilog work "../axi/ipcore_dir/ddr_mig_zync/ddr_mig/user_design/rtl/axi/mig_7series_v1_9_ddr_axic_register_slice.v"
verilog work "../axi/ipcore_dir/ddr_mig_zync/ddr_mig/user_design/rtl/axi/mig_7series_v1_9_ddr_carry_and.v"
verilog work "../axi/ipcore_dir/ddr_mig_zync/ddr_mig/user_design/rtl/axi/mig_7series_v1_9_ddr_carry_latch_and.v"
verilog work "../axi/ipcore_dir/ddr_mig_zync/ddr_mig/user_design/rtl/axi/mig_7series_v1_9_ddr_carry_latch_or.v"
verilog work "../axi/ipcore_dir/ddr_mig_zync/ddr_mig/user_design/rtl/axi/mig_7series_v1_9_ddr_carry_or.v"
verilog work "../axi/ipcore_dir/ddr_mig_zync/ddr_mig/user_design/rtl/axi/mig_7series_v1_9_ddr_command_fifo.v"
verilog work "../axi/ipcore_dir/ddr_mig_zync/ddr_mig/user_design/rtl/axi/mig_7series_v1_9_ddr_comparator.v"
verilog work "../axi/ipcore_dir/ddr_mig_zync/ddr_mig/user_design/rtl/axi/mig_7series_v1_9_ddr_comparator_sel.v"
verilog work "../axi/ipcore_dir/ddr_mig_zync/ddr_mig/user_design/rtl/axi/mig_7series_v1_9_ddr_comparator_sel_static.v"
verilog work "../axi/ipcore_dir/ddr_mig_zync/ddr_mig/user_design/rtl/axi/mig_7series_v1_9_ddr_r_upsizer.v"
verilog work "../axi/ipcore_dir/ddr_mig_zync/ddr_mig/user_design/rtl/axi/mig_7series_v1_9_ddr_w_upsizer.v"
verilog work "../axi/ipcore_dir/ddr_mig_zync/ddr_mig/user_design/rtl/clocking/mig_7series_v1_9_clk_ibuf.v"
verilog work "../axi/ipcore_dir/ddr_mig_zync/ddr_mig/user_design/rtl/clocking/mig_7series_v1_9_infrastructure.v"
verilog work "../axi/ipcore_dir/ddr_mig_zync/ddr_mig/user_design/rtl/clocking/mig_7series_v1_9_iodelay_ctrl.v"
verilog work "../axi/ipcore_dir/ddr_mig_zync/ddr_mig/user_design/rtl/clocking/mig_7series_v1_9_tempmon.v"
verilog work "../axi/ipcore_dir/ddr_mig_zync/ddr_mig/user_design/rtl/controller/mig_7series_v1_9_arb_mux.v"
verilog work "../axi/ipcore_dir/ddr_mig_zync/ddr_mig/user_design/rtl/controller/mig_7series_v1_9_arb_row_col.v"
verilog work "../axi/ipcore_dir/ddr_mig_zync/ddr_mig/user_design/rtl/controller/mig_7series_v1_9_arb_select.v"
verilog work "../axi/ipcore_dir/ddr_mig_zync/ddr_mig/user_design/rtl/controller/mig_7series_v1_9_bank_cntrl.v"
verilog work "../axi/ipcore_dir/ddr_mig_zync/ddr_mig/user_design/rtl/controller/mig_7series_v1_9_bank_common.v"
verilog work "../axi/ipcore_dir/ddr_mig_zync/ddr_mig/user_design/rtl/controller/mig_7series_v1_9_bank_compare.v"
verilog work "../axi/ipcore_dir/ddr_mig_zync/ddr_mig/user_design/rtl/controller/mig_7series_v1_9_bank_mach.v"
verilog work "../axi/ipcore_dir/ddr_mig_zync/ddr_mig/user_design/rtl/controller/mig_7series_v1_9_bank_queue.v"
verilog work "../axi/ipcore_dir/ddr_mig_zync/ddr_mig/user_design/rtl/controller/mig_7series_v1_9_bank_state.v"
verilog work "../axi/ipcore_dir/ddr_mig_zync/ddr_mig/user_design/rtl/controller/mig_7series_v1_9_col_mach.v"
verilog work "../axi/ipcore_dir/ddr_mig_zync/ddr_mig/user_design/rtl/controller/mig_7series_v1_9_mc.v"
verilog work "../axi/ipcore_dir/ddr_mig_zync/ddr_mig/user_design/rtl/controller/mig_7series_v1_9_rank_cntrl.v"
verilog work "../axi/ipcore_dir/ddr_mig_zync/ddr_mig/user_design/rtl/controller/mig_7series_v1_9_rank_common.v"
verilog work "../axi/ipcore_dir/ddr_mig_zync/ddr_mig/user_design/rtl/controller/mig_7series_v1_9_rank_mach.v"
verilog work "../axi/ipcore_dir/ddr_mig_zync/ddr_mig/user_design/rtl/controller/mig_7series_v1_9_round_robin_arb.v"
verilog work "../axi/ipcore_dir/ddr_mig_zync/ddr_mig/user_design/rtl/ecc/mig_7series_v1_9_ecc_buf.v"
verilog work "../axi/ipcore_dir/ddr_mig_zync/ddr_mig/user_design/rtl/ecc/mig_7series_v1_9_ecc_dec_fix.v"
verilog work "../axi/ipcore_dir/ddr_mig_zync/ddr_mig/user_design/rtl/ecc/mig_7series_v1_9_ecc_gen.v"
verilog work "../axi/ipcore_dir/ddr_mig_zync/ddr_mig/user_design/rtl/ecc/mig_7series_v1_9_ecc_merge_enc.v"
verilog work "../axi/ipcore_dir/ddr_mig_zync/ddr_mig/user_design/rtl/ip_top/mig_7series_v1_9_mem_intfc.v"
verilog work "../axi/ipcore_dir/ddr_mig_zync/ddr_mig/user_design/rtl/ip_top/mig_7series_v1_9_memc_ui_top_axi.v"
verilog work "../axi/ipcore_dir/ddr_mig_zync/ddr_mig/user_design/rtl/phy/mig_7series_v1_9_ddr_byte_group_io.v"
verilog work "../axi/ipcore_dir/ddr_mig_zync/ddr_mig/user_design/rtl/phy/mig_7series_v1_9_ddr_byte_lane.v"
verilog work "../axi/ipcore_dir/ddr_mig_zync/ddr_mig/user_design/rtl/phy/mig_7series_v1_9_ddr_calib_top.v"
verilog work "../axi/ipcore_dir/ddr_mig_zync/ddr_mig/user_design/rtl/phy/mig_7series_v1_9_ddr_if_post_fifo.v"
verilog work "../axi/ipcore_dir/ddr_mig_zync/ddr_mig/user_design/rtl/phy/mig_7series_v1_9_ddr_mc_phy.v"
verilog work "../axi/ipcore_dir/ddr_mig_zync/ddr_mig/user_design/rtl/phy/mig_7series_v1_9_ddr_mc_phy_wrapper.v"
verilog work "../axi/ipcore_dir/ddr_mig_zync/ddr_mig/user_design/rtl/phy/mig_7series_v1_9_ddr_of_pre_fifo.v"
verilog work "../axi/ipcore_dir/ddr_mig_zync/ddr_mig/user_design/rtl/phy/mig_7series_v1_9_ddr_phy_4lanes.v"
verilog work "../axi/ipcore_dir/ddr_mig_zync/ddr_mig/user_design/rtl/phy/mig_7series_v1_9_ddr_phy_ck_addr_cmd_delay.v"
verilog work "../axi/ipcore_dir/ddr_mig_zync/ddr_mig/user_design/rtl/phy/mig_7series_v1_9_ddr_phy_dqs_found_cal.v"
verilog work "../axi/ipcore_dir/ddr_mig_zync/ddr_mig/user_design/rtl/phy/mig_7series_v1_9_ddr_phy_dqs_found_cal_hr.v"
verilog work "../axi/ipcore_dir/ddr_mig_zync/ddr_mig/user_design/rtl/phy/mig_7series_v1_9_ddr_phy_init.v"
verilog work "../axi/ipcore_dir/ddr_mig_zync/ddr_mig/user_design/rtl/phy/mig_7series_v1_9_ddr_phy_oclkdelay_cal.v"
verilog work "../axi/ipcore_dir/ddr_mig_zync/ddr_mig/user_design/rtl/phy/mig_7series_v1_9_ddr_phy_prbs_rdlvl.v"
verilog work "../axi/ipcore_dir/ddr_mig_zync/ddr_mig/user_design/rtl/phy/mig_7series_v1_9_ddr_phy_rdlvl.v"
verilog work "../axi/ipcore_dir/ddr_mig_zync/ddr_mig/user_design/rtl/phy/mig_7series_v1_9_ddr_phy_tempmon.v"
verilog work "../axi/ipcore_dir/ddr_mig_zync/ddr_mig/user_design/rtl/phy/mig_7series_v1_9_ddr_phy_top.v"
verilog work "../axi/ipcore_dir/ddr_mig_zync/ddr_mig/user_design/rtl/phy/mig_7series_v1_9_ddr_phy_wrcal.v"
verilog work "../axi/ipcore_dir/ddr_mig_zync/ddr_mig/user_design/rtl/phy/mig_7series_v1_9_ddr_phy_wrlvl.v"
verilog work "../axi/ipcore_dir/ddr_mig_zync/ddr_mig/user_design/rtl/phy/mig_7series_v1_9_ddr_phy_wrlvl_off_delay.v"
verilog work "../axi/ipcore_dir/ddr_mig_zync/ddr_mig/user_design/rtl/phy/mig_7series_v1_9_ddr_prbs_gen.v"
verilog work "../axi/ipcore_dir/ddr_mig_zync/ddr_mig/user_design/rtl/ui/mig_7series_v1_9_ui_cmd.v"
verilog work "../axi/ipcore_dir/ddr_mig_zync/ddr_mig/user_design/rtl/ui/mig_7series_v1_9_ui_rd_data.v"
verilog work "../axi/ipcore_dir/ddr_mig_zync/ddr_mig/user_design/rtl/ui/mig_7series_v1_9_ui_top.v"
verilog work "../axi/ipcore_dir/ddr_mig_zync/ddr_mig/user_design/rtl/ui/mig_7series_v1_9_ui_wr_data.v"
