// Mem file initialization records.
//
// Release 14.6 - Data2MEM P.20131013, build 3.0.10 Apr 3, 2013
// Copyright (c) 1995-2014 Xilinx, Inc.  All rights reserved.
//
// Command: E:\Programs\xilinx\14.7\ISE_DS\ISE\bin\nt64\data2mem.EXE -p "xc7vx485tffg1761-2" -bm F:/GalaxyCores/HEVC/hevc_decoder_project/Dropbox/hdl_codes/hevc_ful_repo/entropy_decoder/ipcore_dir/microblaze_mcs.bmm -bd ../entropy_decoder/workspace/header_parser/Debug/header_parser.elf tag microblaze_mcs -bx . -u
//
// Created on Thursday June 26, 2014 - 05:48:14 pm, from:
//
//     Map file     - F:\GalaxyCores\HEVC\hevc_decoder_project\Dropbox\hdl_codes\hevc_ful_repo\entropy_decoder\ipcore_dir\microblaze_mcs.bmm
//     Data file(s) - ..\entropy_decoder\workspace\header_parser\Debug\header_parser.elf
//
// Address space 'microblaze_mcs.lmb_bram', bit lane [29:28].
//
// Bus width = 32 bits, number of bus blocks = 1.

@00000000
    3 3 3 3 3 3 0 0 3 3

@00000014
    3 3 3 3 3 3 3 3 0 3 3 3 3 3 2 3 3 3 3 3 3 3 3 3 2 1 1 1 1 3 1 3 3 1 1 3 3 2 3 3 1 0 3 2 1 3 3 3 3 3 3 3 1 0 3 3 3 2 2 3 3 3 3 3
    3 3 3 3 3 3 1 0 3 2 3 2 3 3 3 3 3 1 0 2 3 3 2 3 3 2 3 2 0 3 3 2 0 3 3 2 3 2 0 3 3 2 0 3 3 3 0 3 3 0 2 2 3 3 2 3 3 3 0 3 3 0 0 3
    3 2 3 3 3 1 3 3 0 3 0 3 3 3 3 3 3 3 1 3 3 2 3 3 0 3 3 3 3 3 2 2 1 2 1 3 2 3 3 2 2 1 3 2 1 2 3 3 0 3 3 3 1 3 3 2 3 3 3 2 3 3 3 2
    3 3 3 2 3 2 3 3 2 2 3 3 3 3 0 2 2 3 3 3 3 0 2 2 3 3 3 3 0 3 0 2 2 3 3 3 3 3 3 3 3 3 3 3 3 3 0 2 2 3 2 3 2 2 3 3 3 3 3 2 2 3 2 2
    3 3 3 1 1 3 3 3 3 3 0 2 2 3 3 3 3 3 3 3 3 3 3 3 3 0 2 3 2 3 3 1 2 1 2 3 3 0 3 3 3 1 3 3 3 2 1 2 3 3 3 2 3 3 3 2 1 2 3 3 3 2 1 2
    3 3 3 2 3 3 3 2 3 2 3 3 2 1 3 1 3 0 3 3 2 1 2 3 3 2 2 3 2 2 3 1 3 3 3 3 3 0 1 2 3 3 0 1 2 3 3 0 1 2 3 2 3 3 2 2 2 1 3 3 3 2 1 2
    3 3 0 1 2 3 3 3 3 3 3 3 3 2 3 2 3 3 2 2 2 1 3 2 3 3 2 2 2 1 3 3 3 2 1 2 3 2 1 2 3 3 0 3 3 3 1 3 3 3 2 1 2 3 3 3 2 1 2 3 3 3 2 1
    2 3 2 3 2 2 1 1 3 1 3 0 3 0 1 2 3 3 0 1 2 3 3 0 1 2 3 3 3 2 2 1 3 3 0 1 2 3 3 3 2 2 1 3 3 3 2 1 2 3 2 2 1 3 3 0 1 2 3 3 0 1 2 3
    3 0 1 2 3 3 0 1 2 3 3 0 1 2 3 3 0 1 2 3 3 0 1 2 3 3 3 2 1 2 3 3 2 2 1 3 2 2 1 3 1 3 3 3 0 1 2 3 3 0 1 2 3 3 0 1 2 3 2 3 3 2 2 1
    1 2 1 3 3 0 1 2 3 3 0 1 2 3 2 2 1 3 2 3 3 2 1 3 3 2 2 1 3 2 3 2 1 3 2 1 3 2 1 3 3 2 2 1 1 3 2 1 1 2 1 3 1 3 3 1 1 3 3 2 2 1 1 3
    2 1 1 3 2 1 3 1 3 3 1 1 1 3 3 0 3 3 2 1 3 1 3 3 2 2 1 1 3 2 1 1 2 1 3 1 3 3 1 1 3 3 2 2 1 1 3 2 1 1 3 2 1 3 1 3 3 1 1 1 3 3 0 3
    3 2 1 3 1 3 3 3 2 1 3 2 3 2 1 3 2 1 1 3 3 0 3 2 1 3 3 3 0 1 2 3 3 0 1 2 3 2 2 1 3 2 3 3 2 1 3 3 2 2 1 3 2 3 2 1 3 2 1 3 2 1 3 3
    3 0 1 2 3 3 3 2 2 1 3 3 0 1 2 3 3 3 2 2 1 3 3 3 2 1 2 3 3 3 2 1 2 3 3 3 2 2 1 3 3 3 2 1 2 3 3 3 2 1 2 3 3 0 1 2 3 3 3 2 3 0 2 3
    3 2 2 1 2 1 3 3 3 2 1 2 3 3 3 2 1 2 3 3 3 2 1 2 3 3 3 2 1 2 3 3 3 2 1 2 3 2 1 2 3 3 0 3 3 3 3 1 3 3 0 1 2 3 3 0 1 2 3 3 3 2 1 2
    3 3 3 2 1 2 3 3 3 2 1 2 3 3 3 2 1 2 3 3 3 2 2 1 3 3 3 2 1 2 3 3 0 1 2 3 3 0 1 2 3 3 0 1 2 3 3 3 2 1 2 3 3 3 2 1 2 3 3 3 2 2 3 3
    3 2 1 2 3 3 3 2 2 1 3 2 3 2 2 1 3 3 0 1 2 3 3 2 1 3 2 2 2 1 3 2 1 3 2 1 3 3 3 3 3 2 1 3 3 0 1 2 3 3 0 1 2 3 3 3 2 1 2 3 3 3 2 1
    2 3 3 3 2 1 2 3 3 3 2 1 2 3 3 3 2 2 1 3 3 3 2 1 2 3 3 3 2 1 2 3 3 3 2 2 1 3 2 3 2 2 1 3 3 0 1 2 3 3 0 1 2 3 3 3 2 1 2 3 2 2 1 3
    3 3 3 0 1 2 1 1 3 1 3 3 2 3 3 2 2 1 2 1 3 3 3 3 0 1 2 1 1 3 1 3 3 2 3 3 2 2 1 2 1 3 3 3 2 1 2 3 3 2 3 2 3 2 3 3 3 3 2 1 2 3 3 3
    2 1 2 3 2 3 2 3 2 3 2 3 2 2 1 3 3 3 2 1 2 3 3 3 2 1 2 3 2 2 1 3 3 0 1 2 3 3 0 1 2 3 3 3 2 1 2 3 3 3 2 1 2 3 3 0 1 2 3 3 3 2 1 2
    3 3 3 2 1 2 3 2 2 1 3 3 3 2 3 3 2 1 1 1 3 3 0 1 2 2 1 3 1 1 3 3 0 2 3 2 1 1 2 3 3 0 1 2 2 1 3 1 1 3 3 0 2 1 2 2 3 3 1 3 2 3 3 2
    2 1 1 2 1 3 3 2 2 1 3 2 1 2 3 3 3 3 2 1 1 3 1 3 2 2 3 2 2 3 3 1 3 2 2 1 2 2 1 3 2 2 3 3 1 2 1 2 3 3 2 3 3 2 2 1 2 1 3 3 3 3 3 2
    3 2 3 3 1 2 2 3 3 1 2 1 2 3 3 2 3 3 2 2 1 1 2 1 3 2 2 1 3 3 3 2 3 3 2 1 1 1 3 3 0 1 2 2 1 3 1 1 3 3 0 2 3 2 1 1 2 3 3 0 1 2 2 1
    3 1 1 3 3 0 2 1 2 2 3 3 1 3 2 3 3 2 2 1 1 2 1 3 3 2 2 1 3 2 1 2 3 3 3 3 2 1 1 3 1 3 2 2 3 2 2 3 3 1 3 2 2 1 2 2 1 3 2 2 3 3 1 2
    1 2 3 3 2 3 3 2 2 1 2 1 3 3 3 3 3 2 3 2 3 3 1 2 2 3 3 1 2 1 2 3 3 2 3 3 2 2 1 1 2 1 3 3 3 3 3 3 2 1 2 1 1 1 1 1 1 2 1 1 3 3 1 3
    2 3 3 1 2 1 3 2 1 3 2 1 1 3 3 0 3 2 2 3 3 1 2 1 3 2 1 2 1 1 1 1 1 1 2 1 1 3 3 1 3 2 3 3 1 2 1 2 3 3 1 2 1 1 3 3 0 2 1 3 2 3 3 2
    2 1 1 2 1 3 2 3 3 2 2 1 1 2 1 3 2 1 2 2 3 3 0 3 3 1 3 3 3 3 3 3 2 1 2 3 3 3 2 1 2 3 3 3 2 1 2 3 3 3 2 1 1 1 1 1 1 1 1 1 3 2 3 3
    2 1 1 1 1 1 1 1 1 1 1 1 1 1 1 1 1 0 3 3 2 1 1 1 1 1 1 1 1 0 3 3 2 0 2 3 3 3 2 3 3 3 2 3 3 3 2 3 3 3 2 3 3 3 2 3 3 3 2 3 3 3 2 1
    2 3 3 3 2 3 3 2 2 1 3 2 3 2 3 3 1 2 3 3 0 3 3 3 1 3 2 3 3 3 2 3 1 3 2 3 3 3 2 1 1 2 0 3 3 0 3 3 3 2 3 3 0 3 2 2 2 1 3 2 1 1 1 3
    2 3 2 1 1 3 2 3 1 1 3 3 0 3 2 1 1 1 1 1 1 1 1 1 1 3 3 1 2 3 3 3 3 3 2 1 2 1 1 3 1 3 3 2 1 1 3 1 3 3 3 2 1 1 3 1 3 2 3 3 3 2 1 2
    1 1 3 1 3 3 2 3 3 2 2 1 3 3 2 1 1 1 1 1 1 1 1 1 1 3 3 1 2 3 3 3 2 1 1 1 1 1 1 1 1 1 1 2 1 3 3 1 2 1 1 2 1 3 2 3 2 1 1 1 1 1 1 1
    1 1 1 3 3 1 2 2 1 1 1 3 1 3 2 3 2 1 2 1 1 1 1 1 1 1 1 1 1 2 1 3 3 1 3 2 1 1 1 1 1 1 1 1 1 1 3 3 1 2 2 1 1 1 3 1 3 2 1 2 1 1 1 1
    1 1 1 1 1 1 2 1 3 3 1 3 2 3 3 2 3 3 2 3 2 3 2 1 1 1 1 1 1 1 1 1 1 3 3 1 2 1 1 3 1 3 2 3 2 1 2 1 1 1 1 1 1 1 1 1 1 2 1 3 3 1 3 2
    1 1 1 1 1 1 1 1 1 1 3 3 1 2 1 1 3 1 3 2 1 2 1 1 1 1 1 1 1 1 1 1 2 1 3 3 1 3 2 3 3 3 3 2 1 1 1 1 1 1 1 1 1 1 2 1 3 3 1 2 1 1 2 1
    3 2 3 2 1 1 3 1 3 2 3 2 1 2 1 1 1 1 1 1 1 1 1 1 2 1 3 3 1 3 2 1 1 3 1 3 2 1 2 1 1 1 1 1 1 1 1 1 1 2 1 3 3 1 3 2 3 3 2 3 3 2 2 1
    1 1 1 1 1 1 1 1 1 3 3 1 2 1 3 2 2 1 1 1 1 1 1 1 1 1 1 3 3 1 3 3 2 1 1 1 1 1 1 1 1 1 1 3 3 1 2 3 3 3 2 1 1 1 1 1 1 1 1 1 1 2 1 3
    3 1 2 1 1 2 1 3 2 3 2 1 1 3 1 3 2 3 2 1 2 1 1 1 1 1 1 1 1 1 1 2 1 3 3 1 3 2 1 1 3 1 3 2 1 2 1 1 1 1 1 1 1 1 1 1 2 1 3 3 1 3 2 3
    3 2 3 3 2 3 2 3 2 1 1 1 1 1 1 1 1 1 1 3 3 1 2 1 1 3 1 3 2 3 2 1 2 1 1 1 1 1 1 1 1 1 1 2 1 3 3 1 3 2 1 1 1 1 1 1 1 1 1 1 3 3 1 2
    1 1 3 1 3 2 1 2 1 1 1 1 1 1 1 1 1 1 2 1 3 3 1 3 2 3 3 3 3 2 1 1 1 1 1 1 1 1 1 1 2 1 3 3 1 2 1 1 2 1 3 2 3 2 1 1 1 1 1 1 1 1 1 1
    3 3 1 2 2 1 1 1 3 1 3 2 3 2 1 2 1 1 1 1 1 1 1 1 1 1 2 1 3 3 1 3 2 1 1 1 1 1 1 1 1 1 1 3 3 1 2 2 1 1 1 3 1 3 2 1 2 1 1 1 1 1 1 1
    1 1 1 2 1 3 3 1 3 2 3 3 2 3 3 2 2 1 1 1 1 1 1 1 1 1 1 3 3 1 2 1 3 2 2 1 1 1 1 1 1 1 1 1 1 3 3 1 3 2 1 1 1 1 1 1 1 1 1 1 3 3 1 2
    2 2 1 1 1 1 1 1 1 1 1 1 3 3 1 2 2 1 2 2 1 1 1 1 1 1 1 1 1 1 3 3 1 3 3 3 0 3 3 0 3 2 2 1 1 1 1 1 1 1 1 1 1 3 3 1 3 2 2 1 1 1 1 1
    1 1 1 1 1 3 3 1 3 3 3 3 0 3 3 3 2 1 2 1 1 1 1 1 1 1 1 1 1 2 1 3 3 1 3 2 3 2 1 2 1 2 1 1 1 1 1 1 1 1 1 1 2 1 3 3 1 3 3 2 3 2 1 1
    1 1 1 1 1 1 1 1 1 3 3 1 2 1 2 2 2 2 2 1 2 1 2 1 1 1 1 1 1 1 1 1 1 2 1 3 3 1 3 2 3 3 2 2 1 3 3 3 3 0 3 3 3 2 1 2 1 1 1 1 1 1 1 1
    1 1 2 1 3 3 1 3 2 3 2 2 3 2 1 2 1 1 1 1 1 1 1 1 1 1 2 1 3 3 1 3 3 2 3 2 1 1 1 1 1 1 1 1 1 1 1 3 3 1 2 1 2 2 2 1 2 3 2 1 2 1 1 1
    1 1 1 1 1 1 1 2 1 3 3 1 3 2 3 3 2 2 1 3 2 1 1 1 1 1 1 1 1 1 1 3 3 1 2 2 2 1 1 1 1 1 1 1 1 1 1 3 3 1 2 2 1 2 2 1 1 1 1 1 1 1 1 1
    1 3 3 1 3 2 1 2 3 3 0 3 3 3 1 3 3 3 2 1 2 3 3 2 1 3 3 3 2 1 2 3 3 0 1 2 3 2 2 3 3 2 3 3 3 2 1 2 3 3 2 1 3 2 1 3 0 1 3 0 1 2 3 2
    2 3 3 2 1 3 1 3 3 2 2 3 3 3 3 3 3 3 3 3 3 3 3 2 3 2 3 3 3 3 3 3 3 3 2 1 3 3 3 3 2 3 2 2 1 3 3 2 2 3 3 3 3 3 2 2 3 3 3 2 1 2 1 3
    3 0 1 2 3 3 3 2 2 3 3 2 3 3 3 2 1 2 3 2 3 3 3 3 3 2 1 3 3 2 1 3 1 3 3 1 3 2 3 3 3 2 2 3 3 3 3 2 1 3 3 2 1 2 3 2 1 3 0 1 2 3 2 2
    3 2 1 1 3 3 2 1 1 2 2 1 2 1 1 1 1 1 1 1 1 1 1 1 1 1 1 1 1 1 1 1 1 1 1 1 1 1 1 1 1 1 1 1 1 1 1 1 3 3 2 1 1 2 1 3 3 2 2 3 2 1 1 3
    2 2 3 2 1 1 2 1 1 1 1 1 1 1 1 1 1 1 1 1 1 1 1 1 1 1 1 1 1 1 1 1 1 1 1 1 1 1 1 1 1 1 3 3 2 1 1 2 1 3 3 3 2 1 3 2 2 2 1 3 2 3 3 3
    3 2 1 2 3 2 3 2 2 3 3 2 1 1 3 0 3 3 2 1 3 1 3 3 2 1 3 2 1 3 0 3 2 2 1 3 0 1 2 3 2 3 3 2 1 3 3 3 2 1 2 3 3 2 1 3 2 2 1 3 3 2 1 3
    3 2 2 3 3 3 3 2 3 3 3 3 3 2 3 3 2 1 3 3 3 2 1 2 3 3 3 2 1 2 3 3 3 2 2 1 1 2 2 0 3 2 2 3 1 3 3 3 2 1 2 3 3 2 1 1 2 3 3 2 1 1 2 3
    2 2 3 3 0 1 2 3 2 2 3 3 0 1 2 3 3 3 2 2 3 3 3 2 2 3 2 2 3 3 3 2 1 2 3 3 3 2 2 3 2 3 3 2 1 3 3 3 2 1 2 3 2 2 3 2 3 3 2 2 3 3 3 2
    1 2 3 2 3 2 2 3 2 2 3 2 2 3 2 2 3 3 0 1 2 3 3 0 1 2 3 2 2 3 2 3 1 3 2 1 3 3 3 3 3 2 1 3 3 0 1 2 3 3 2 1 3 2 2 2 3 2 1 3 2 3 3 2
    1 3 3 2 3 2 3 2 3 3 2 1 1 2 3 3 2 1 1 2 3 3 2 1 1 2 3 3 2 1 3 3 0 1 2 3 3 0 1 2 3 3 2 1 3 2 3 3 2 1 3 3 3 2 1 2 3 2 2 3 3 3 2 1
    2 3 2 2 3 3 0 1 2 3 3 0 1 2 3 3 2 1 3 3 3 2 1 2 3 3 2 1 3 3 2 1 3 3 0 1 2 3 2 2 3 3 0 3 3 3 3 3 2 2 3 2 1 3 0 3 2 3 3 2 2 2 1 3
    2 3 3 2 3 3 3 3 2 1 3 3 0 3 3 3 3 3 3 2 3 3 2 2 1 3 3 0 3 3 3 2 1 1 1 1 1 1 1 1 1 1 1 1 1 1 1 1 2 3 3 3 3 2 3 3 3 3 2 1 3 3 3 3
    2 1 3 2 2 2 3 3 3 2 2 2 3 2 2 3 3 3 3 3 3 2 2 3 3 3 3 3 3 3 2 3 3 3 3 3 2 2 3 3 3 3 3 3 3 3 3 3 3 3 3 3 2 3 3 3 3 2 1 3 3 3 3 2
    1 3 3 2 1 3 3 2 1 1 3 2 1 1 1 3 3 0 3 3 2 1 1 3 2 1 1 3 3 2 1 3 3 3 3 2 2 3 3 2 1 1 3 2 1 1 1 3 3 0 1 3 2 1 1 2 1 3 1 3 3 1 3 3
    2 1 1 3 2 1 1 1 3 3 0 1 3 2 1 1 2 1 3 1 3 3 1 3 3 3 2 3 2 2 3 2 2 1 1 1 1 1 1 1 1 2 3 2 0 3 2 3 2 2 3 2 1 1 1 1 1 1 1 1 1 1 1 1
    1 3 2 2 3 2 0 3 3 3 3 2 3 3 3 3 3 2 2 2 2 2 2 1 1 1 1 1 1 1 1 2 2 0 3 2 2 2 2 2 2 1 1 1 1 1 1 1 1 1 2 2 0 3 2 2 2 2 2 2 1 1 1 1
    1 1 1 1 1 1 1 1 1 2 2 0 3 2 2 2 2 2 2 1 1 1 1 1 1 1 1 1 1 1 1 1 1 2 2 0 3 2 2 2 2 2 2 1 1 1 1 1 1 1 1 1 1 1 1 1 1 1 2 3 2 0 3 2
    2 2 2 2 2 1 1 1 1 1 1 1 1 1 1 1 1 1 1 1 1 2 3 2 0 3 2 2 2 2 2 2 1 1 1 1 1 1 1 1 1 1 1 1 1 3 2 2 3 2 0 3 2 2 2 2 2 2 1 1 1 1 1 1
    1 1 1 3 2 2 3 2 0 3 2 2 2 2 2 2 1 1 1 1 1 1 3 2 2 3 2 0 3 2 2 2 2 2 2 1 1 1 1 3 2 2 3 2 0 3 2 2 2 2 2 2 1 1 1 3 2 2 3 2 0 3 3 3
    3 2 3 3 3 3 3 2 2 1 1 1 1 1 1 1 1 1 1 2 2 1 1 1 1 1 1 1 1 2 2 0 3 2 2 1 1 1 1 1 1 1 1 1 1 2 2 1 1 1 1 1 1 1 1 1 1 1 1 1 2 3 2 0
    3 2 2 2 2 2 2 1 1 1 1 1 1 1 1 1 1 1 1 1 1 1 3 2 2 3 2 0 3 2 2 1 1 1 1 1 1 1 1 1 1 1 1 2 2 1 1 1 1 1 1 1 1 1 1 1 1 1 1 3 2 2 3 2
    0 3 2 2 1 1 1 1 1 1 1 1 1 1 1 1 2 2 1 1 1 1 1 1 1 1 1 1 3 2 2 3 2 0 3 2 2 2 2 2 1 1 1 1 1 1 3 2 2 3 2 0 3 3 3 3 2 3 3 2 1 3 2 2
    3 3 3 3 3 2 2 3 2 1 1 1 1 1 1 1 1 1 1 3 3 1 2 2 3 2 1 1 1 1 1 1 1 1 1 1 3 3 1 2 2 3 3 3 3 2 3 3 3 3 3 3 3 2 2 2 2 2 1 1 1 1 1 1
    1 1 2 2 0 3 2 1 1 1 1 1 1 1 1 1 1 2 1 3 3 1 2 1 2 2 2 2 1 1 1 1 1 1 1 1 1 1 1 1 1 1 1 2 3 2 0 3 2 1 1 1 1 1 1 1 1 1 1 2 1 3 3 1
    2 1 3 3 3 3 2 3 2 3 3 2 2 1 1 1 1 1 1 1 1 1 1 3 3 1 2 1 3 3 3 3 3 3 3 2 2 2 2 2 1 1 1 1 1 1 1 1 2 2 0 3 2 1 1 1 1 1 1 1 1 1 1 2
    1 3 3 1 2 1 2 2 2 2 1 1 1 1 1 1 1 1 1 1 1 1 1 1 1 2 3 2 0 3 2 1 1 1 1 1 1 1 1 1 1 2 1 3 3 1 2 1 3 3 3 3 2 3 2 3 3 2 2 1 1 1 1 1
    1 1 1 1 1 3 3 1 2 1 3 3 3 3 3 3 2 1 1 1 1 1 1 2 1 1 3 3 1 2 1 1 2 2 0 3 3 3 2 1 3 3 2 1 3 3 3 2 3 3 3 2 1 1 2 1 3 2 3 3 3 2 1 1
    2 1 3 2 3 3 0 3 3 3 2 1 3 3 2 1 3 3 3 3 3 3 2 1 3 3 2 1 1 3 2 1 1 1 3 3 0 3 2 2 3 3 3 3 3 2 3 3 3 3 3 3 3 3 2 3 3 0 3 2 1 1 3 2
    1 1 3 3 2 1 3 3 3 2 3 3 3 3 2 3 3 3 3 3 3 3 3 3 3 3 2 1 3 3 3 2 1 3 3 3 3 3 3 3 3 2 3 3 0 3 3 3 3 3 3 2 3 3 3 3 3 3 3 2 1 3 3 2
    1 3 1 3 3 3 2 1 1 3 2 1 3 0 3 3 3 3 2 1 3 1 3 3 3 0 3 3 3 3 3 3 3 2 1 3 3 3 2 3 2 3 3 1 3 2 1 3 3 3 3 3 2 1 2 3 3 0 3 3 3 3 1 3
    2 1 3 1 3 3 3 3 3 2 1 1 3 2 1 3 1 1 3 3 0 1 3 2 1 1 3 3 3 3 2 1 1 3 2 1 1 1 1 1 1 1 1 1 1 3 3 1 2 1 3 3 3 3 2 1 3 2 3 3 3 3 2 1
    3 2 1 3 2 1 3 2 1 1 3 3 0 3 3 3 3 2 1 3 2 1 3 2 1 1 2 1 3 1 3 3 1 3 3 3 3 3 3 2 1 3 2 1 3 2 1 1 2 1 3 1 3 3 1 3 2 2 3 2 2 1 1 1
    1 1 1 1 1 2 3 2 0 3 3 2 1 3 2 1 3 2 1 1 2 1 3 1 3 3 1 3 2 2 3 2 1 1 1 1 1 1 1 1 1 1 1 1 1 3 2 2 3 2 0 3 3 3 3 2 3 3 3 3 3 3 3 2
    1 3 2 1 0 3 3 2 1 1 3 2 1 3 2 1 3 2 1 1 2 1 3 1 3 3 1 1 3 3 3 2 1 3 2 1 3 2 1 1 2 1 3 1 3 3 1 3 3 2 1 3 3 2 1 3 2 3 2 1 1 1 1 1
    1 1 1 2 3 2 0 3 3 3 3 2 3 2 1 2 2 3 3 0 3 3 3 1 3 3 3 3 3 3 3 3 2 3 2 3 3 2 3 3 2 2 1 3 1 3 3 1 3 3 2 3 2 2 1 3 0 2 1 3 2 1 2 1
    2 3 3 0 3 3 3 1 3 0 3 2 2 3 2 1 1 1 3 2 1 3 2 1 3 2 1 3 1 1 2 1 2 3 3 0 3 3 1 1 3 3 2 3 1 3 3 3 2 3 2 3 3 2 1 2 2 1 3 1 3 3 1 3
    2 1 1 1 1 1 1 1 1 3 3 3 2 2 3 2 2 1 3 2 3 2 1 1 2 3 3 0 3 3 1 3 3 3 3 1 2 3 3 0 3 3 1 3 3 3 3 1 2 3 3 0 3 3 1 1 3 3 3 3 2 3 3 2
    1 3 2 3 2 1 2 3 3 0 3 3 1 3 3 3 3 2 1 3 2 2 3 2 2 1 1 1 1 1 1 1 1 2 3 2 0 3 3 2 1 3 2 2 3 2 1 1 1 1 1 1 1 1 1 1 1 1 1 3 2 2 3 2
    0 3 3 3 3 2 3 3 3 3 3 3 2 1 2 2 2 2 1 1 1 1 1 1 1 1 2 2 0 3 3 2 1 2 2 2 2 1 1 1 3 2 2 3 2 0 3 3 2 1 1 1 1 1 1 1 1 1 1 1 2 2 1 1
    1 1 1 1 1 1 1 1 1 2 3 2 0 3 3 2 1 1 1 1 1 1 1 1 1 1 1 2 2 1 1 1 1 1 1 1 1 1 1 1 1 1 1 1 1 2 3 2 0 3 3 2 1 1 1 1 1 1 1 1 1 1 1 1
    1 2 2 1 1 1 1 1 1 1 1 1 1 1 1 3 2 2 3 2 0 3 3 2 1 1 1 1 1 1 1 1 1 1 1 1 1 2 2 1 1 1 1 1 1 1 1 3 2 2 3 2 0 3 3 2 1 2 2 2 2 1 1 1
    1 3 2 2 3 2 0 3 3 3 3 2 3 3 3 3 3 3 2 1 2 2 2 2 1 1 1 1 1 1 1 1 2 2 0 3 3 2 1 2 2 2 2 1 1 1 1 1 1 1 1 1 1 1 1 1 1 2 2 0 3 3 2 1
    2 2 2 2 1 1 1 1 1 1 1 1 1 1 1 1 1 1 1 2 3 2 0 3 3 2 1 2 2 2 2 1 1 1 1 1 1 1 1 1 1 1 1 1 1 1 1 2 3 2 0 3 3 2 1 2 2 2 2 1 1 1 1 1
    1 1 1 1 1 1 1 1 1 3 2 2 3 2 0 3 3 3 3 2 3 3 3 3 3 3 3 2 2 3 2 1 1 1 1 1 1 1 1 1 1 3 3 1 2 2 3 2 1 1 1 1 1 1 1 1 1 1 3 3 1 2 2 3
    3 3 3 2 3 3 3 3 3 2 2 2 2 2 1 1 1 1 1 1 1 1 2 2 0 3 2 1 1 1 1 1 1 1 1 1 1 2 1 3 3 1 2 1 2 2 2 2 1 1 1 1 1 1 1 1 1 1 1 1 1 1 1 2
    3 2 0 3 2 1 1 1 1 1 1 1 1 1 1 2 1 3 3 1 2 1 3 3 3 3 2 3 2 3 3 2 2 1 1 1 1 1 1 1 1 1 1 3 3 1 2 1 3 3 3 3 3 2 2 2 2 2 1 1 1 1 1 1
    1 1 2 2 0 3 2 1 1 1 1 1 1 1 1 1 1 2 1 3 3 1 2 1 2 2 2 2 1 1 1 1 1 1 1 1 1 1 1 1 1 1 1 2 3 2 0 3 2 1 1 1 1 1 1 1 1 1 1 2 1 3 3 1
    2 1 3 3 3 3 2 3 2 3 3 2 2 1 1 1 1 1 1 1 1 1 1 3 3 1 2 1 3 2 3 3 3 2 1 2 1 3 1 2 3 3 0 3 3 3 1 3 3 0 3 3 0 2 1 2 3 3 0 3 3 3 1 3
    3 0 3 3 0 2 1 2 3 3 0 3 3 1 1 2 3 3 0 3 3 3 1 3 0 3 0 2 1 2 3 3 0 3 3 3 1 3 0 2 1 2 3 3 0 3 0 3 0 3 0 3 2 1 2 1 3 2 2 1 2 1 3 2
    3 3 3 3 3 3 3 3 3 3 3 3 3 3 1 3 2 3 2 3 3 1 0 2 2 2 1 2 2 2 2 2 2 2 2 2 2 2 2 3 3 3 3 3 3 3 0 3 3 3 3 0 3 3 0 3 3 0 2 3 3 3 3 3
    3 0 3 3 0 2 3 3 3 2 3 3 3 1 0 3 2 3 2 3 3 3 3 3 3 0 3 0 3 1 2 1 3 2 2 1 2 1 3 2 2 3 3 2 1 1 3 3 3 3 0 2 3 3 2 1 1 3 3 3 3 0 2 3
    3 2 1 1 3 3 3 3 0 3 3 3 3 3 3 3 3 0 2 3 2 3 3 3 3 0 3 3 0 0 0 3 0 3 3 3 0 3 3 3 2 0 2 2 2 2 3 3 3 3 3 3 3 3 3 3 0 2 3 2 3 3 3 3
    0 3 3 0 0 0 3 0 3 3 3 0 3 3 3 2 0 2 2 2 2 3 3 0 3 3 3 0 2 3 2 3 0 1 0 3 3 0 3 3 0 3 0 3 2 3 1 3 3 3 3 1 3 2 2 3 1 1 3 3 1 2 3 1
    2 3 3 2 0 3 2 3 1 2 3 3 3 2 0 3 2 3 1 2 3 1 2 3 3 1 3 1 3 1 3 3 3 2 3 3 3 1 1 3 3 3 3 3 3 3 3 3 3 3 3 2 3 1 2 3 3 2 3 3 3 3 3 3
    1 1 0 0 3 3 2 1 3 1 0 3 0 1 3 2 2 1 3 1 3 3 1 0 3 2 0 3 1 1 1 0 2 0 3 2 0 3 3 3 3 3 2 2 2 2 2 2 2 2 2 2 2 2 3 3 1 0 3 2 3 3 1 1
    1 1 0 3 2 3 3 1 1 3 1 0 3 0 1 3 2 2 1 3 1 3 3 1 0 3 2 0 3 1 1 1 1 0 2 0 3 2 0 3 3 3 3 2 1 1 3 1 0 3 0 3 3 1 1 3 3 1 0 2 0 3 2 0
    3 3 3 2 3 1 1 3 1 0 3 0 3 1 1 0 3 2 1 1 0 3 2 2 3 2 3 3 3 3 3 1 3 3 1 2 3 2 3 2 2 1 3 1 3 2 3 3 2 3 3 3 3 1 0 2 2 3 3 2 2 3 3 3
    1 3 3 1 3 3 1 3 3 0 3 3 0 0 3 3 3 1 3 3 0 0 3 3 3 0 3 0 0 0 0 0 0 0 0 0 0 0 0 0 0 0 0 0 0 0 0 0 0 0 0 0 0 0 0 0 0 0 0 0 0 0 0 0
    0 0 0 0 0 0 0 0 0 0 0 0 0 0 0 0 0 0 0 0 0 0 0 0 0 0 0 0 0 0 0 0 0 0 0 0
