

Vivado Project Options:
   Target Device                   : xc7z045-ffg900
   Speed Grade                     : -2
   HDL                             : verilog
   Synthesis Tool                  : VIVADO

MIG Output Options:
   Module Name                     : zynq_design_1_mig_7series_0_0
   No of Controllers               : 1
   Selected Compatible Device(s)   : --

FPGA Options:
   System Clock Type               : Differential
   Reference Clock Type            : Use System Clock
   Debug Port                      : OFF
   Internal Vref                   : disabled
   IO Power Reduction              : ON
   XADC instantiation in MIG       : Enabled

Extended FPGA Options:
   DCI for DQ,DQS/DQS#,DM          : enabled
   Internal Termination (HR Banks) : 50 Ohms
    
/*******************************************************/
/*                  Controller 0                       */
/*******************************************************/
Controller Options :
   Memory                        : DDR3_SDRAM
   Interface                     : AXI
   Design Clock Frequency        : 2500 ps (400.00 MHz)
   Phy to Controller Clock Ratio : 4:1
   Input Clock Period            : 5000 ps
   CLKFBOUT_MULT (PLL)           : 4
   DIVCLK_DIVIDE (PLL)           : 1
   VCC_AUX IO                    : 1.8V
   Memory Type                   : SODIMMs
   Memory Part                   : MT8JTF12864HZ-1G6
   Equivalent Part(s)            : --
   Data Width                    : 64
   ECC                           : Disabled
   Data Mask                     : enabled
   ORDERING                      : Normal

AXI Parameters :
   Data Width                    : 512
   Arbitration Scheme            : RD_PRI_REG
   Narrow Burst Support          : 1
   ID Width                      : 4

Memory Options:
   Burst Length (MR0[1:0])          : 8 - Fixed
   Read Burst Type (MR0[3])         : Sequential
   CAS Latency (MR0[6:4])           : 6
   Output Drive Strength (MR1[5,1]) : RZQ/7
   Controller CS option             : Enable
   Rtt_NOM - ODT (MR1[9,6,2])       : RZQ/6
   Rtt_WR - Dynamic ODT (MR2[10:9]) : Dynamic ODT off
   Memory Address Mapping           : BANK_ROW_COLUMN


Bank Selections:

System_Clock: 
	SignalName: sys_clk_p/n
		PadLocation: H9/G9(CC_P/N)  Bank: 34

System_Control: 
	SignalName: sys_rst
		PadLocation: No connect  Bank: Select Bank
	SignalName: init_calib_complete
		PadLocation: No connect  Bank: Select Bank
	SignalName: tg_compare_error
		PadLocation: No connect  Bank: Select Bank



    
