// Mem file initialization records.
//
// Release 14.6 - Data2MEM P.20131013, build 3.0.10 Apr 3, 2013
// Copyright (c) 1995-2014 Xilinx, Inc.  All rights reserved.
//
// Command: C:\Xilinx\14.7\ISE_DS\ISE\bin\nt64\data2mem.EXE -p "xc7vx485tffg1761-2" -bm G:/HEVC/repo/sources/hevc_maleen/entropy_decoder/ipcore_dir/microblaze_mcs.bmm -bd sources/hevc_maleen/workspace/header_parser/Debug/header_parser.elf tag microblaze_mcs -bx . -u
//
// Created on Monday July 28, 2014 - 03:16:07 pm, from:
//
//     Map file     - G:\HEVC\repo\sources\hevc_maleen\entropy_decoder\ipcore_dir\microblaze_mcs.bmm
//     Data file(s) - sources\hevc_maleen\workspace\header_parser\Debug\header_parser.elf
//
// Address space 'microblaze_mcs.lmb_bram', bit lane [21:20].
//
// Bus width = 32 bits, number of bus blocks = 1.

@00000000
    0 0 0 0 0 0 0 0 0 0

@00000014
    0 2 0 0 0 2 0 3 0 0 3 2 0 0 2 0 0 2 0 0 1 0 0 0 2 0 2 2 3 0 2 0 2 0 2 0 0 0 2 2 2 0 0 0 0 0 0 0 0 0 0 0 0 0 0 0 0 0 0 0 0 0 0 0
    0 0 0 0 0 0 0 0 0 2 0 2 0 0 0 0 0 2 2 3 0 2 0 2 0 2 2 0 0 0 2 0 2 2 0 2 2 2 3 3 1 3 2 2 0 0 0 0 0 0 2 3 0 0 2 1 1 2 3 0 0 2 0 2
    0 2 0 3 0 2 2 2 0 2 0 2 0 0 0 2 2 0 2 0 2 0 0 3 0 0 2 0 0 2 0 0 2 3 0 3 0 2 0 2 2 2 0 0 0 2 0 3 0 0 0 1 0 0 0 2 0 3 0 0 0 1 0 3
    0 0 3 0 0 2 0 3 2 2 0 3 0 0 3 0 2 3 0 2 2 2 2 2 0 3 0 3 0 0 2 0 0 2 2 2 2 3 1 3 0 3 0 3 1 0 0 2 1 3 0 0 0 0 3 2 3 1 3 0 1 2 3 2
    2 0 0 2 2 2 2 0 2 2 3 0 2 2 3 0 2 2 3 0 2 1 0 3 0 2 3 2 2 0 2 3 0 3 2 2 3 0 3 2 2 3 0 3 2 2 2 0 2 2 0 2 2 0 2 0 2 3 0 3 2 0 3 0
    3 2 2 0 0 0 0 3 2 0 3 2 2 2 0 2 2 0 2 0 2 3 0 3 2 2 2 0 2 0 0 2 0 2 0 2 3 0 3 2 3 2 3 2 2 3 2 2 0 0 2 2 2 2 3 0 2 2 0 3 0 0 2 2
    3 0 2 2 0 3 0 0 2 2 0 3 0 0 2 2 3 0 2 2 3 3 0 0 2 2 0 2 3 0 0 2 2 0 3 0 1 3 2 2 3 2 0 2 3 0 2 3 3 0 0 3 0 3 0 0 3 0 3 0 0 3 0 3
    2 3 3 0 3 0 3 0 2 2 0 3 0 3 0 0 3 0 2 3 0 1 0 0 2 2 3 3 2 3 3 0 3 0 3 3 2 3 3 0 3 0 3 0 2 2 0 3 0 2 3 2 2 0 0 2 2 2 2 2 0 2 0 2
    2 2 3 0 2 2 2 3 0 2 2 2 3 3 2 1 0 2 0 2 3 0 3 0 3 3 0 3 3 2 2 2 0 2 2 0 2 0 2 0 0 3 0 3 0 3 3 0 3 0 2 2 2 3 3 2 0 3 0 3 3 0 3 3
    0 3 3 0 3 3 0 3 3 0 3 3 0 3 0 2 2 2 3 1 3 2 2 3 2 0 2 3 0 3 2 2 0 2 2 0 2 0 2 0 0 3 0 2 3 3 0 3 3 0 3 3 0 3 3 2 3 3 2 0 3 0 3 3
    0 3 3 0 3 3 2 2 3 1 3 2 2 3 3 2 2 1 0 2 1 2 1 3 2 3 3 2 0 3 0 0 2 1 2 1 3 2 2 0 0 3 0 2 3 2 3 3 2 2 1 0 2 1 2 1 3 2 3 3 2 0 3 0
    0 2 1 2 1 3 2 2 0 0 3 0 2 3 2 3 1 3 2 0 0 3 0 3 3 0 3 3 0 3 3 2 2 3 1 3 2 2 3 3 0 3 3 0 3 0 2 2 2 3 3 2 0 0 2 2 3 3 0 3 0 0 2 2
    2 3 0 2 2 2 3 0 2 2 2 3 1 3 2 0 0 2 2 2 3 0 2 2 2 3 3 0 3 3 0 3 0 2 2 2 3 3 2 0 2 2 0 2 2 3 3 2 0 2 2 0 2 2 3 3 2 0 2 2 0 2 2 3
    3 2 0 0 3 2 0 2 2 0 2 2 3 3 0 3 1 0 3 2 1 3 0 3 2 3 3 2 0 3 0 1 0 2 2 2 3 0 2 2 2 3 0 2 2 2 3 0 2 2 2 3 3 2 2 0 2 0 2 2 2 2 2 2
    2 2 2 2 2 2 0 2 2 1 2 0 2 0 3 0 2 3 2 2 0 0 2 2 2 2 2 0 2 3 0 3 3 0 3 3 0 2 0 2 2 2 2 2 2 2 2 2 2 2 2 0 2 0 2 0 2 2 3 0 2 2 3 0
    2 2 2 3 0 2 2 2 3 0 2 2 2 3 3 0 3 3 0 3 3 0 3 0 2 2 2 3 0 2 2 3 0 2 2 2 3 1 3 2 0 3 0 3 0 2 0 0 2 1 0 0 0 3 0 3 3 0 3 0 2 2 2 3
    0 2 2 2 3 0 2 2 2 3 0 2 2 2 3 0 2 2 2 3 0 2 2 2 3 1 3 2 0 3 0 3 3 0 3 0 2 2 2 3 3 2 2 1 0 3 0 0 3 2 2 3 2 2 0 3 2 3 3 2 0 3 0 1
    1 0 3 0 0 3 2 2 3 2 2 0 3 2 3 3 2 0 3 0 1 0 2 2 2 3 0 1 1 2 3 0 2 2 2 3 0 2 2 2 3 1 1 1 3 2 0 0 2 2 2 3 0 2 2 2 3 3 2 2 3 0 3 3
    0 3 0 2 2 2 3 3 2 0 3 0 0 2 2 2 3 3 0 3 0 2 2 2 3 0 2 2 2 3 1 2 2 2 2 2 2 2 2 2 2 2 0 2 2 1 2 0 2 0 3 0 3 0 2 0 2 2 2 2 2 2 2 2
    2 2 2 2 0 2 0 2 2 3 2 2 0 0 2 2 2 3 1 3 1 0 2 2 0 3 0 0 2 2 0 3 0 0 2 2 0 3 0 0 2 2 0 0 0 0 0 0 0 0 0 0 0 0 2 2 2 2 2 2 2 2 2 2
    2 2 2 2 2 2 2 2 0 0 2 2 2 2 2 2 2 2 2 2 0 0 2 2 0 3 0 0 2 2 3 0 2 2 3 0 2 2 3 0 2 2 3 0 2 2 3 0 2 2 3 0 2 2 0 3 0 1 0 3 2 3 1 3
    0 1 3 2 3 2 3 3 2 2 0 0 2 2 2 2 1 0 1 0 0 2 2 3 3 2 3 0 3 3 2 3 2 1 0 3 2 2 2 2 2 0 3 2 2 2 1 2 2 0 0 3 2 3 1 2 0 3 0 1 0 1 2 0
    1 1 2 0 3 3 2 2 3 2 3 2 2 0 2 0 3 2 2 2 2 2 2 3 2 2 2 3 2 2 0 0 3 2 2 0 2 0 3 2 2 2 2 2 2 3 2 2 2 3 2 2 0 3 2 3 1 2 0 3 0 1 3 2
    3 1 0 3 2 2 2 2 2 0 3 2 2 2 1 2 2 0 3 2 2 2 2 2 2 3 2 2 2 3 2 2 0 3 2 3 3 2 2 0 2 1 0 1 3 2 2 1 2 2 0 3 2 2 3 2 2 0 2 3 3 2 2 2
    2 2 2 2 2 2 2 2 2 1 0 2 3 3 2 2 2 2 2 2 2 2 2 2 2 2 2 2 2 2 1 0 0 2 3 1 0 3 2 3 3 2 2 2 2 2 0 3 2 2 2 1 2 2 2 2 3 0 2 1 0 0 3 2
    3 3 2 2 0 2 1 0 1 1 2 0 3 2 3 3 2 2 1 2 2 2 2 2 2 3 0 2 1 0 0 0 0 2 3 3 2 2 0 2 3 2 3 3 2 2 2 2 2 2 2 2 2 2 2 2 1 0 2 3 3 2 2 2
    2 2 2 2 2 2 2 2 2 2 2 2 2 1 0 0 2 3 1 2 0 3 3 0 0 3 2 2 3 2 2 0 3 2 2 1 2 2 2 2 3 2 3 3 2 3 0 2 1 0 0 1 0 3 0 3 1 3 2 0 2 2 2 2
    2 2 2 2 2 2 2 2 2 2 2 2 2 2 2 2 2 2 2 2 2 2 2 2 2 2 2 2 0 0 0 0 2 3 3 2 2 2 2 2 0 3 2 2 2 1 2 2 1 0 3 2 3 3 2 2 2 2 2 0 3 2 2 2
    1 2 2 2 2 3 0 2 1 0 0 3 2 3 1 3 0 1 3 2 3 3 2 2 2 0 2 1 0 1 3 2 3 1 2 0 3 2 3 2 2 0 0 2 2 2 2 3 0 3 0 2 2 2 0 3 0 3 3 0 2 3 3 2
    2 2 2 0 2 0 2 0 2 0 2 0 2 0 2 0 2 0 2 1 0 2 3 3 0 3 2 2 2 2 2 2 0 2 0 2 0 2 0 2 0 2 0 2 0 2 0 2 0 2 0 2 0 2 1 0 2 3 0 2 1 0 0 1
    0 0 2 2 0 3 2 2 3 2 2 0 3 2 3 0 0 3 0 3 0 2 2 2 0 1 0 0 2 2 0 3 2 2 3 2 2 0 3 2 3 0 0 3 0 3 1 0 3 2 2 1 2 2 2 0 3 0 3 3 0 3 3 0
    2 3 3 2 2 2 2 2 2 2 2 2 2 2 2 1 0 2 3 3 2 3 3 2 3 2 1 0 2 1 2 1 3 2 0 0 3 0 2 2 0 2 2 0 2 0 2 0 2 0 2 0 2 0 2 0 2 0 2 2 2 2 2 2
    2 2 2 0 2 2 2 2 2 2 2 2 2 2 2 2 2 2 2 2 2 1 0 0 2 3 3 2 3 0 2 1 0 0 3 2 2 1 2 2 2 0 1 0 3 0 3 3 0 3 3 0 2 3 3 2 2 2 2 2 2 2 2 2
    2 2 2 1 0 2 3 3 2 2 2 2 2 2 2 2 2 2 2 2 2 2 2 2 2 2 2 1 0 2 3 3 2 3 2 1 0 2 1 2 1 3 2 0 0 3 0 2 2 0 2 2 0 2 0 2 0 2 0 2 0 2 0 2
    0 2 0 2 2 2 2 2 2 2 2 2 0 2 2 2 2 2 2 2 2 2 2 2 2 2 2 2 2 2 1 0 0 2 3 3 2 2 2 2 2 2 2 0 2 2 2 2 2 2 2 2 2 2 2 2 2 2 2 2 2 2 2 2
    2 2 2 2 2 2 2 2 2 2 2 2 2 1 2 2 2 2 2 2 2 2 2 2 2 2 2 2 0 0 2 1 2 1 3 2 2 0 3 2 3 1 2 0 1 3 0 0 3 2 2 0 2 3 0 2 1 0 0 3 2 3 1 2
    0 3 3 2 3 0 0 3 0 3 0 2 2 1 0 0 2 2 0 3 2 2 3 2 2 0 3 2 3 0 0 3 0 3 0 2 2 2 0 1 0 0 2 2 0 3 2 2 3 2 2 0 3 2 3 0 0 3 0 3 1 0 3 2
    2 1 2 2 2 0 3 0 3 3 0 3 3 0 2 3 3 2 2 2 2 2 2 2 2 2 2 2 2 1 0 2 3 3 2 3 3 2 3 2 1 0 2 1 2 1 3 2 0 0 3 0 2 2 0 2 2 0 2 0 2 0 2 0
    2 0 2 0 2 0 2 0 2 2 2 2 2 2 2 2 2 0 2 2 2 2 2 2 2 2 2 2 2 2 2 2 2 2 2 1 0 0 2 3 3 2 3 0 2 1 0 0 3 2 2 1 2 2 2 0 1 0 3 0 3 3 0 3
    3 0 2 3 3 2 2 2 2 2 2 2 2 2 2 2 2 1 0 2 3 3 2 2 2 2 2 2 2 2 2 2 2 2 2 2 2 2 2 2 2 1 0 2 3 3 2 3 2 1 0 2 1 2 1 3 2 0 0 3 0 2 2 0
    2 2 0 2 0 2 0 2 0 2 0 2 0 2 0 2 0 2 2 2 2 2 2 2 2 2 0 2 2 2 2 2 2 2 2 2 2 2 2 2 2 2 2 2 1 0 0 2 3 3 2 2 2 2 2 2 2 0 2 2 2 2 2 2
    2 2 2 2 2 2 2 2 2 2 2 2 2 2 2 2 2 2 2 2 2 2 2 2 2 2 2 1 2 2 2 2 2 2 2 2 2 2 2 2 2 2 0 0 2 1 2 1 3 2 2 0 3 2 3 1 2 0 1 3 0 0 3 2
    2 0 2 3 0 2 1 0 0 3 2 3 1 2 0 3 3 2 3 0 0 3 0 3 2 3 2 2 0 0 2 2 2 2 3 1 3 0 0 2 2 0 2 3 3 0 1 3 2 2 0 3 2 2 3 0 3 0 2 2 3 3 0 3
    3 0 3 2 3 1 2 2 2 0 2 2 2 2 0 3 2 2 0 0 3 0 3 1 1 2 2 2 2 2 2 2 2 2 2 2 2 2 3 1 0 0 2 2 0 3 2 2 3 2 2 0 3 2 2 1 2 2 0 0 3 2 2 1
    2 2 2 2 0 2 2 0 3 2 2 3 2 2 0 3 2 3 1 3 0 3 1 1 1 2 2 2 2 2 2 2 2 2 2 2 2 2 2 3 0 1 1 2 2 2 2 2 2 2 2 2 2 0 3 2 2 2 2 0 3 2 3 3
    2 1 1 2 2 2 2 2 2 2 2 2 2 2 2 0 3 2 2 2 1 2 2 2 0 3 0 3 1 2 2 2 2 2 2 2 2 2 2 0 3 2 2 0 1 2 3 3 1 2 2 2 2 2 2 2 2 2 2 2 2 0 3 2
    2 2 1 2 2 2 2 1 1 2 2 2 2 2 2 2 2 2 2 2 2 2 2 3 2 3 3 2 3 2 1 1 2 2 2 2 2 2 2 2 2 2 2 2 2 2 2 1 2 2 2 0 3 0 3 1 2 2 2 2 2 2 2 2
    2 2 0 3 2 2 0 1 2 3 3 1 2 2 2 2 2 2 2 2 2 2 2 2 2 2 2 1 2 2 2 2 1 1 2 2 2 2 2 2 2 2 2 2 2 2 2 2 1 0 1 1 2 2 2 2 2 2 2 2 2 2 0 3
    2 2 2 2 0 3 2 3 3 2 3 2 2 1 2 2 2 0 3 0 3 1 2 2 2 2 2 2 2 2 2 2 0 3 2 2 0 1 2 3 3 2 2 1 2 2 2 2 1 1 2 2 2 2 2 2 2 2 2 2 2 2 2 2
    3 2 3 1 3 1 2 2 2 2 2 2 2 2 2 2 2 2 2 0 1 1 3 1 2 2 2 2 2 2 2 2 2 2 2 2 0 1 1 1 2 2 2 2 2 2 2 2 2 2 2 2 2 2 3 0 1 1 2 2 2 2 2 2
    2 2 2 2 0 3 2 2 2 2 0 3 2 3 3 2 3 2 2 1 2 2 2 0 3 0 3 1 2 2 2 2 2 2 2 2 2 2 0 3 2 2 0 1 2 3 3 2 2 1 2 2 2 2 1 1 2 2 2 2 2 2 2 2
    2 2 2 2 2 2 3 2 3 3 2 3 2 1 1 2 2 2 2 2 2 2 2 2 2 2 2 2 2 2 1 2 2 2 0 3 0 3 1 2 2 2 2 2 2 2 2 2 2 0 3 2 2 0 1 2 3 3 1 2 2 2 2 2
    2 2 2 2 2 2 2 2 2 2 1 2 2 2 2 1 1 2 2 2 2 2 2 2 2 2 2 2 2 2 2 1 0 1 1 2 2 2 2 2 2 2 2 2 2 0 3 2 2 2 2 0 3 2 3 3 2 1 1 2 2 2 2 2
    2 2 2 2 2 2 2 0 3 2 2 2 1 2 2 2 0 3 0 3 1 2 2 2 2 2 2 2 2 2 2 0 3 2 2 0 1 2 3 3 1 2 2 2 2 2 2 2 2 2 2 2 2 0 3 2 2 2 1 2 2 2 2 1
    1 2 2 2 2 2 2 2 2 2 2 2 2 2 2 3 2 3 1 3 1 2 2 2 2 2 2 2 2 2 2 2 2 2 0 1 1 3 1 2 2 2 2 2 2 2 2 2 2 2 2 0 1 1 2 2 2 2 2 2 2 2 2 2
    2 2 2 0 3 1 2 2 2 2 2 2 2 2 2 2 2 2 2 2 2 0 3 1 2 2 2 2 2 2 2 2 2 2 2 2 0 0 3 0 3 3 0 3 1 3 1 2 2 2 2 2 2 2 2 2 2 2 2 0 1 3 1 2
    2 2 2 2 2 2 2 2 2 2 2 0 1 0 3 0 3 0 2 2 0 3 1 2 2 2 2 2 2 2 2 2 2 0 3 2 2 0 3 2 3 2 2 0 3 1 2 2 2 2 2 2 2 2 2 2 0 3 2 2 0 0 3 0
    3 1 2 2 2 2 2 2 2 2 2 2 2 2 2 2 2 0 3 2 2 2 2 2 0 3 1 2 2 2 2 2 2 2 2 2 2 0 3 2 2 0 3 2 3 1 3 0 1 1 0 3 0 3 0 2 2 0 3 1 2 2 2 2
    2 2 2 2 2 2 0 3 2 2 0 3 2 3 2 2 2 0 3 1 2 2 2 2 2 2 2 2 2 2 0 3 2 2 0 0 3 0 3 1 2 2 2 2 2 2 2 2 2 2 2 2 2 2 2 0 3 2 2 2 2 2 0 3
    1 2 2 2 2 2 2 2 2 2 2 0 3 2 2 0 3 2 3 1 3 0 1 1 1 2 2 2 2 2 2 2 2 2 2 2 2 2 0 3 1 2 2 2 2 2 2 2 2 2 2 2 2 2 2 2 0 3 1 2 2 2 2 2
    2 2 2 2 2 2 2 0 2 3 2 2 0 0 2 2 2 2 3 0 2 2 0 3 0 0 2 2 0 0 2 2 0 3 0 3 0 0 3 0 3 0 2 2 2 2 2 2 2 2 2 2 2 0 2 0 2 0 2 2 0 2 0 2
    2 2 2 2 2 2 2 2 2 2 2 0 2 0 2 0 2 0 0 0 0 0 2 1 0 0 0 3 0 0 2 2 0 3 2 0 2 3 0 3 2 2 0 2 2 0 0 2 2 0 3 0 0 2 2 0 2 2 3 0 2 3 0 0
    3 0 3 2 2 0 2 2 2 2 0 2 3 2 0 2 0 0 0 2 0 2 0 0 0 0 3 0 3 0 0 0 0 0 0 2 0 0 0 0 0 2 0 0 0 3 2 2 0 2 3 2 2 1 0 0 2 2 3 2 3 0 2 2
    2 0 3 0 1 3 0 0 3 0 0 2 1 0 0 0 2 2 0 0 2 2 0 3 0 3 0 0 1 1 0 2 2 2 0 2 0 2 1 2 1 3 2 3 3 0 2 3 3 2 3 0 0 0 2 2 2 0 2 2 2 2 2 2
    2 3 0 0 3 0 3 0 0 2 2 0 3 0 2 2 0 3 2 0 3 2 2 2 2 2 2 2 2 2 2 2 2 2 2 2 2 2 2 2 2 2 2 2 2 2 2 2 2 2 2 2 2 2 2 0 1 0 2 2 0 3 2 3
    0 3 0 0 2 2 0 3 3 0 0 2 2 0 3 2 2 2 2 2 2 2 2 2 2 2 2 2 2 2 2 2 2 2 2 2 2 2 2 2 2 2 2 2 2 2 2 2 2 0 3 0 2 2 0 3 2 3 0 0 2 2 3 3
    0 3 2 3 3 0 2 0 2 2 0 3 0 3 0 3 2 2 0 0 0 2 2 2 2 0 3 0 0 0 2 2 0 2 0 3 0 2 2 2 0 2 2 3 0 3 3 2 2 3 0 0 3 0 3 0 0 2 2 2 0 0 2 2
    0 3 0 0 2 2 0 3 2 2 0 2 3 2 0 2 3 2 0 0 2 1 0 0 0 2 0 0 0 0 0 2 2 2 0 0 2 2 0 3 0 0 2 2 0 3 0 0 0 3 2 2 2 3 2 2 2 3 0 2 0 1 0 2
    2 0 3 0 0 2 2 2 0 3 0 0 2 2 2 0 3 0 3 2 0 3 0 0 3 0 3 2 2 3 0 0 3 0 0 2 1 0 0 0 2 1 0 0 3 2 2 0 2 2 0 3 0 0 2 1 0 0 3 0 0 2 2 2
    0 0 2 2 0 3 0 3 2 0 3 0 0 3 2 2 0 2 2 0 3 0 3 0 3 2 0 3 2 0 3 2 2 3 2 2 3 0 0 3 0 0 2 2 2 0 3 2 2 0 0 2 2 2 0 3 2 2 3 0 3 0 0 3
    0 3 2 0 2 0 2 0 2 2 0 2 0 2 0 0 0 0 3 0 0 3 0 0 2 2 2 0 0 3 2 0 2 2 0 2 2 0 2 2 0 2 3 0 3 0 3 0 0 2 2 2 0 3 0 0 2 2 2 0 3 0 0 2
    2 2 0 3 0 0 2 2 2 0 3 0 0 3 0 3 0 0 3 0 0 2 2 2 0 3 0 0 2 2 2 0 0 2 2 0 3 0 3 2 0 0 2 2 0 3 0 3 2 2 3 0 0 3 0 3 0 0 3 0 0 2 2 2
    0 0 2 2 0 3 0 0 0 2 2 2 2 0 2 2 2 0 3 0 0 3 0 0 2 1 0 0 0 3 2 2 3 0 3 1 1 1 0 3 2 2 2 2 3 0 3 3 2 3 3 0 3 0 1 3 0 0 2 2 0 2 0 2
    2 2 0 3 0 3 1 0 0 2 0 3 2 3 1 3 0 1 3 0 0 0 0 2 2 2 2 2 2 2 2 2 2 2 2 2 2 2 2 2 2 2 3 2 2 2 1 0 3 2 2 2 3 2 0 2 0 2 3 0 3 2 0 2
    0 2 3 0 2 1 0 0 2 0 0 1 1 0 1 0 1 2 2 2 2 2 2 1 2 2 0 2 2 2 0 3 2 2 2 2 3 3 2 0 2 3 2 0 2 0 3 2 3 0 2 2 2 0 3 0 3 3 2 3 0 2 2 2
    0 3 0 3 3 2 2 0 2 0 0 0 0 0 2 0 0 0 0 0 2 0 0 2 0 0 2 2 2 2 0 2 0 0 0 2 0 0 2 2 2 0 3 0 0 2 0 0 0 0 0 2 0 0 0 0 0 2 0 0 2 2 2 0
    0 2 2 0 0 2 2 2 0 0 3 0 2 0 2 0 0 0 0 0 2 0 0 0 0 0 2 2 0 0 2 2 2 0 0 2 0 1 0 2 0 3 2 2 0 2 2 0 0 2 2 2 0 0 3 0 2 0 2 0 0 2 1 2
    1 3 2 3 0 2 2 0 0 2 2 2 0 0 3 0 2 0 2 0 0 2 1 2 1 3 2 3 2 3 3 0 2 2 0 2 2 2 2 2 2 2 2 2 2 1 0 0 2 3 3 0 2 2 0 0 2 2 2 2 2 2 2 2
    2 2 2 2 2 0 2 1 0 0 2 3 0 2 1 0 0 3 0 2 3 3 2 2 2 2 2 2 2 2 2 2 2 2 2 1 0 2 3 3 2 2 2 2 2 2 2 2 2 2 2 2 2 2 1 0 2 3 3 2 2 2 2 2
    2 2 2 2 2 2 2 2 2 2 2 2 2 1 0 2 3 3 2 2 2 2 2 2 2 2 2 2 2 2 2 2 2 2 2 2 2 1 0 2 3 3 2 2 2 2 2 2 2 2 2 2 2 2 2 2 2 2 2 2 2 2 1 0
    0 2 3 3 2 2 2 2 2 2 2 2 2 2 2 2 2 2 2 2 2 2 2 2 2 1 0 0 2 3 3 2 2 2 2 0 2 2 2 2 2 2 2 2 2 2 2 2 2 0 2 1 0 0 2 3 3 2 2 2 2 0 2 2
    2 2 2 2 2 2 2 0 2 1 0 0 2 3 3 2 2 2 2 0 2 2 2 2 2 2 0 2 1 0 0 2 3 3 2 2 2 2 0 2 2 2 2 0 2 1 0 0 2 3 3 2 2 2 2 0 2 2 2 0 2 1 0 0
    2 3 0 2 1 0 0 3 0 2 3 3 2 2 0 2 0 2 0 2 0 2 2 2 2 2 2 2 2 2 2 2 2 2 2 2 1 0 2 3 3 2 2 0 2 0 2 0 2 0 2 2 2 2 2 2 2 2 2 2 2 2 2 2
    2 2 2 2 2 2 1 0 0 2 3 3 2 2 2 2 0 2 2 2 2 2 2 2 2 2 2 2 2 2 2 2 0 2 1 0 0 2 3 3 2 2 0 2 0 2 0 2 0 2 0 2 2 2 2 2 2 2 0 2 2 2 2 2
    2 2 2 2 2 2 2 2 2 0 2 1 0 0 2 3 3 2 2 0 2 0 2 0 2 0 2 0 2 2 2 2 2 2 2 0 2 2 2 2 2 2 2 2 2 2 0 2 1 0 0 2 3 3 2 2 2 0 2 2 2 2 2 2
    0 2 1 0 0 2 3 0 2 1 0 0 0 2 2 2 3 3 2 2 3 0 2 3 3 2 3 0 0 1 2 2 2 2 2 2 2 2 2 2 2 2 2 2 3 0 0 1 2 2 2 2 2 2 2 2 2 2 2 2 2 2 3 0
    2 1 0 0 1 0 3 0 2 3 3 2 2 2 2 2 2 2 2 2 2 2 2 1 0 2 3 0 0 1 2 2 2 2 2 2 2 2 2 2 0 3 2 2 2 2 2 2 2 2 2 2 2 2 2 2 2 2 2 2 2 2 2 2
    2 1 0 0 2 3 0 0 1 2 2 2 2 2 2 2 2 2 2 0 3 2 2 2 2 3 0 2 1 0 0 3 2 3 1 0 2 1 2 2 2 2 2 2 2 2 2 2 2 2 2 0 1 1 0 3 0 2 3 3 2 2 2 2
    2 2 2 2 2 2 2 2 1 0 2 3 0 0 1 2 2 2 2 2 2 2 2 2 2 0 3 2 2 2 2 2 2 2 2 2 2 2 2 2 2 2 2 2 2 2 2 2 2 2 1 0 0 2 3 0 0 1 2 2 2 2 2 2
    2 2 2 2 0 3 2 2 2 2 3 0 2 1 0 0 3 2 3 1 0 2 1 2 2 2 2 2 2 2 2 2 2 2 2 2 0 1 3 0 3 0 0 2 0 0 0 0 0 3 2 0 2 0 2 0 0 2 2 2 0 0 2 2
    0 0 2 2 2 0 0 3 0 3 0 2 2 2 2 0 2 0 3 2 2 0 2 0 0 3 2 0 2 0 0 0 0 2 2 3 3 0 0 2 2 0 0 2 2 2 0 0 2 0 1 0 2 1 0 0 0 2 1 0 0 2 0 0
    0 2 0 0 2 0 0 0 0 0 0 0 2 2 2 0 0 2 0 0 0 0 2 2 3 3 0 0 2 0 0 0 2 1 0 0 2 0 0 2 0 0 0 0 0 2 2 2 2 0 2 0 2 2 0 0 2 2 2 2 2 2 0 0
    0 2 2 2 2 0 2 3 0 0 2 0 0 0 2 0 0 0 0 0 2 2 3 1 0 2 0 3 3 2 0 2 0 2 2 2 2 0 2 2 2 0 0 2 2 0 2 2 0 2 2 0 2 0 0 2 0 2 3 2 2 0 0 2
    2 2 0 2 0 2 2 2 2 0 2 0 0 0 2 2 0 0 2 2 2 2 2 0 0 3 0 0 0 2 2 2 3 0 2 0 2 2 0 0 2 2 0 2 2 2 2 2 2 2 2 0 2 2 2 2 0 2 0 0 0 0 0 0
    0 0 0 2 2 0 2 0 0 2 2 0 2 2 0 0 3 0 3 0 2 0 0 0 0 0 0 0 0 2 0 0 1 0 1 3 0 0 3 0 2 3 0 2 2 0 2 2 0 2 0 0 2 1 2 1 3 2 0 2 2 0 2 2
    2 2 2 2 2 2 2 2 1 0 0 2 3 0 2 2 0 2 2 0 2 0 0 2 1 2 1 3 2 0 2 2 0 0 2 2 2 2 2 2 2 2 2 2 2 2 2 0 2 1 0 0 2 3 0 2 1 0 0 3 0 2 3 1
    0 2 2 0 0 2 2 2 2 0 2 2 2 0 0 2 2 0 2 0 0 2 2 0 2 1 2 1 3 2 2 3 0 0 2 2 0 2 2 0 2 0 0 2 1 2 1 3 2 3 0 2 2 2 2 0 2 2 2 3 3 0 2 2
    2 2 2 2 2 2 2 1 0 0 2 3 0 2 1 0 0 2 3 2 0 2 0 0 2 2 2 2 2 3 1 1 1 0 0 2 2 3 3 2 3 3 0 2 1 0 2 1 2 1 3 2 2 3 3 2 3 2 2 3 0 1 2 3
    3 2 2 3 2 2 0 0 2 2 2 2 3 0 3 3 2 2 3 2 2 2 0 2 2 0 2 2 0 3 2 2 2 2 2 3 2 2 0 0 2 2 2 2 3 1 1 2 0 3 0 2 2 3 3 2 3 3 2 1 0 2 1 2
    1 3 2 3 3 2 2 2 2 2 2 2 2 0 2 3 3 2 0 0 3 2 0 2 3 3 2 3 2 2 0 0 2 2 2 0 2 0 0 3 2 2 0 0 2 2 2 0 2 0 0 3 2 2 0 0 2 2 2 2 3 2 3 3
    2 3 0 3 2 3 3 2 3 3 2 3 3 2 2 0 0 2 2 2 0 2 0 2 2 2 0 1 0 3 0 0 2 2 2 0 0 3 0 0 0 2 2 2 2 2 0 0 3 0 0 0 2 2 2 1 0 3 0 0 0 2 2 2
    2 2 0 0 3 0 2 2 0 3 0 2 0 3 2 3 0 2 2 2 0 3 0 3 0 0 2 2 2 0 0 0 0 0 0 1 0 0 0 3 2 2 2 2 2 2 2 0 3 0 2 0 0 2 2 2 0 0 0 0 0 2 1 0
    0 0 0 0 0 0 3 2 3 0 2 2 2 0 3 0 1 0 0 1 0 3 2 1 0 0 2 1 0 0 0 0 0 0 0 3 2 3 0 2 2 2 0 3 0 3 0 2 2 2 0 1 0 3 0 0 2 2 2 0 0 3 0 0
    0 2 2 2 2 2 0 0 3 0 0 0 2 2 2 1 0 3 0 0 0 2 2 2 2 2 0 0 3 0 2 2 0 3 0 2 0 3 2 3 0 2 2 2 0 3 0 3 0 0 2 2 2 0 0 0 0 0 0 1 0 0 0 3
    2 2 2 2 2 2 2 0 3 0 2 0 0 2 2 2 0 0 0 0 0 2 1 0 0 0 0 0 0 0 3 2 3 0 2 2 2 0 3 0 1 0 0 1 0 3 2 1 0 0 2 1 0 0 0 0 0 0 0 3 2 3 0 2
    2 2 0 3 0 3 1 1 0 1 0 3 2 1 2 2 2 2 2 2 1 2 2 0 2 2 3 0 2 2 0 0 2 2 0 2 2 0 0 3 0 0 0 3 0 2 2 2 0 2 2 1 2 2 2 2 2 2 1 2 2 0 2 2
    3 0 2 2 0 3 0 2 2 2 0 0 3 0 1 2 3 3 2 3 0 2 2 2 0 3 0 3 3 2 3 0 2 2 2 0 3 0 3 3 0 1 0 2 2 2 0 2 2 0 2 2 2 2 2 2 2 2 2 2 1 0 0 2
    3 0 2 2 2 0 2 2 0 0 2 2 2 2 2 2 2 2 2 2 2 2 2 0 2 1 0 0 2 3 0 2 1 0 0 3 0 2 3 0 2 2 2 2 2 2 2 2 2 2 2 2 2 2 1 0 2 3 0 2 2 2 2 2
    2 0 2 2 2 0 2 1 0 0 2 3 0 2 2 2 2 0 2 0 2 0 2 0 2 2 2 2 2 2 2 2 2 2 2 2 2 2 2 2 2 2 1 0 0 2 3 0 2 2 2 2 0 2 0 2 0 2 0 2 2 2 2 2
    2 2 2 2 2 2 2 2 2 2 2 2 2 2 2 2 2 2 1 0 0 2 3 0 2 2 2 2 0 2 0 2 0 2 0 2 0 2 2 2 2 2 2 2 0 2 2 2 2 2 2 2 2 2 2 2 2 0 2 1 0 0 2 3
    0 2 2 2 2 0 2 0 2 0 2 0 2 0 2 2 2 2 2 2 2 0 2 2 2 2 2 2 2 2 0 2 1 0 0 2 3 0 2 2 2 2 2 2 0 2 2 2 2 0 2 1 0 0 2 3 0 2 2 2 2 2 0 2
    2 0 2 1 0 0 2 3 0 2 1 0 0 3 0 2 3 0 2 2 2 2 2 2 2 2 2 2 2 2 2 2 2 1 0 2 3 0 2 2 2 2 2 2 2 2 2 2 2 2 2 2 2 2 2 2 2 2 2 1 0 2 3 0
    2 2 2 2 2 2 2 2 2 2 2 2 2 2 2 2 2 2 2 2 2 2 1 0 0 2 3 0 2 2 2 2 2 2 2 2 2 2 2 2 2 2 2 2 2 2 2 2 2 2 2 1 0 0 2 3 0 2 2 2 2 2 2 0
    2 2 2 2 2 2 2 2 2 2 2 2 2 2 0 2 1 0 0 2 3 0 2 2 2 2 2 2 0 2 2 2 2 2 2 2 2 2 2 2 2 2 0 2 1 0 0 2 3 0 2 1 0 0 1 0 3 0 2 3 3 2 3 0
    0 1 2 2 2 2 2 2 2 2 2 2 2 2 2 2 3 0 0 1 2 2 2 2 2 2 2 2 2 2 2 2 2 2 3 0 2 1 0 0 1 0 2 3 3 2 2 2 2 2 2 2 2 2 2 2 2 1 0 2 3 0 0 1
    2 2 2 2 2 2 2 2 2 2 0 3 2 2 2 2 2 2 2 2 2 2 2 2 2 2 2 2 2 2 2 2 2 2 2 1 0 0 2 3 0 0 1 2 2 2 2 2 2 2 2 2 2 0 3 2 2 2 2 3 0 2 1 0
    0 3 2 3 1 0 2 1 2 2 2 2 2 2 2 2 2 2 2 2 2 0 1 1 0 2 3 3 2 2 2 2 2 2 2 2 2 2 2 2 1 0 2 3 0 0 1 2 2 2 2 2 2 2 2 2 2 0 3 2 2 2 2 2
    2 2 2 2 2 2 2 2 2 2 2 2 2 2 2 2 2 2 1 0 0 2 3 0 0 1 2 2 2 2 2 2 2 2 2 2 0 3 2 2 2 2 3 0 2 1 0 0 3 2 3 1 0 2 1 2 2 2 2 2 2 2 2 2
    2 2 2 2 0 1 3 2 3 0 2 2 2 0 3 0 1 0 2 0 0 0 0 0 0 2 0 0 0 0 0 0 2 0 0 0 0 0 2 0 0 0 0 0 2 0 0 0 0 0 2 0 0 0 0 0 2 0 0 0 0 0 0 2
    0 0 0 0 0 0 2 0 0 0 0 0 0 2 0 0 0 0 0 0 2 2 2 0 0 2 0 0 0 0 0 0 2 0 0 0 0 0 0 2 0 0 0 0 0 0 2 0 0 0 0 0 0 2 0 0 0 0 0 0 2 0 0 0
    0 0 2 0 0 0 0 0 0 2 0 0 0 0 0 2 0 0 0 0 0 0 2 0 0 0 0 0 2 3 2 0 2 0 0 2 2 2 2 0 3 0 0 3 0 2 3 2 2 0 0 2 2 2 2 0 3 0 0 3 0 2 3 2
    2 0 0 2 2 2 3 2 2 0 0 2 2 2 2 3 0 3 0 2 3 2 2 0 0 2 2 2 2 3 0 2 3 2 2 0 0 1 0 0 0 0 0 0 2 0 0 0 0 2 2 0 0 0 0 2 2 2 2 2 0 2 0 2
    0 2 0 2 0 2 2 0 2 0 2 0 2 3 0 2 2 2 0 2 0 2 0 2 0 2 0 2 0 2 0 2 2 0 2 0 0 0 0 2 2 0 3 0 0 3 0 0 3 0 2 0 2 2 2 0 3 0 0 3 0 2 0 2
    0 2 2 0 2 3 0 0 2 2 2 0 2 0 0 2 0 0 0 0 2 2 2 0 0 2 2 0 0 0 0 2 2 0 0 0 0 0 3 1 2 0 0 2 0 0 0 0 0 3 1 2 0 0 2 0 0 0 0 0 3 1 2 0
    0 2 0 2 0 2 0 0 2 0 2 2 0 0 2 2 0 2 0 3 2 1 2 1 0 2 3 1 2 0 3 1 2 2 0 2 0 2 0 2 2 0 2 0 2 0 0 2 0 2 2 0 2 0 0 2 2 2 3 2 2 2 1 2
    1 3 1 1 0 3 1 2 2 0 2 0 2 0 2 2 0 0 2 0 2 2 0 0 2 0 2 0 2 2 0 0 0 0 2 0 2 2 0 2 2 0 3 2 0 0 2 0 3 2 0 3 3 2 0 0 0 0 2 2 2 0 2 2
    2 2 0 3 2 0 2 2 2 0 0 1 2 3 0 0 2 3 0 0 2 3 0 0 2 3 0 1 2 2 0 3 0 1 2 3 3 1 0 3 2 0 1 2 0 3 2 2 3 2 2 0 2 0 2 0 2 0 3 3 0 2 3 2
    1 3 1 3 1 3 0 0 2 2 0 2 0 2 2 2 3 0 2 0 2 2 0 2 0 0 2 2 0 0 2 0 0 2 2 2 2 2 2 2 2 2 2 0 2 0 0 0 2 2 2 2 2 2 2 2 2 2 2 2 0 0 2 0
    0 2 0 2 0 0 2 2 0 2 0 2 2 2 2 2 2 2 0 0 0 2 2 2 3 1 1 3 2 2 2 2 2 2 2 2 2 2 2 2 2 2 2 2 2 2 2 2 2 2 2 2 2 2 2 2 2 2 2 2 2 2 2 0
    0 0 0 2 2 2 2 0 2 0 0 2 0 0 2 2 2 2 2 2 2 2 2 2 2 2 2 2 2 2 2 2 2 2 2 2 2 2 2 2 2 2 2 2 2 2 0 2 2 2 2 2 2 2 2 2 2 2 2 2 2 2 2 2
    2 2 2 2 2 2 2 2 2 2 2 2 2 2 2 2 2 2 2 2 0 2 2 1 2 0 0 2 3 0 0 2 1 2 0 0 2 1 0 0 2 2 0 2 2 0 2 0 0 2 1 0 2 2 0 2 0 0 2 2 0 2 2 0
    2 0 0 0 2 2 0 2 0 0 2 0 2 0 2 2 0 0 2 1 0 2 0 0 0 2 0 2 0 2 0 2 2 2 2 2 0 2 0 0 3 2 1 1 1 3 2 1 3 1 3 0 3 1 3 2 2 2 2 2 1 1 0 1
    2 0 0 0 2 0 1 1 2 1 2 1 3 2 0 0 3 2 0 3 2 3 2 3 0 3 3 2 2 3 3 3 3 2 2 0 2 0 2 0 2 0 2 0 2 0 2 3 0 1 3 1 1 0 2 3 3 0 1 3 1 1 0 0
    2 0 0 0 2 0 0 1 1 2 1 2 1 3 2 0 0 1 2 2 3 2 3 3 0 3 2 2 3 2 2 3 1 1 3 0 0 2 0 0 2 2 3 1 0 0 3 0 3 0 3 2 2 3 2 2 3 1 3 1 0 0 2 0
    2 0 0 1 0 3 0 1 3 2 3 2 1 3 3 2 3 0 1 3 0 3 3 0 3 3 1 3 2 1 2 3 1 1 0 0 2 0 2 0 0 2 2 0 3 0 2 0 2 2 2 2 2 2 2 2 2 2 2 2 0 0 2 2
    0 3 1 0 2 0 2 3 0 0 0 0 3 0 3 2 2 0 2 0 2 0 2 0 0 2 2 0 3 0 2 0 2 2 0 2 2 0 2 2 3 0 0 2 2 2 2 2 2 3 2 3 3 3 3 3 3 1 1 3 2 3 2 3
    3 3 3 3 3 3 3 0 3 3 0 2 3 1 3 0 2 3 2 3 0 2 1 3 3 0 2 3 3 3 2 3 2 3 3 3 3 0 3 3 0 2 1 1 3 0 2 3 3 3 0 2 3 3 3 0 2 3 3 3 2 3 2 3
    3 3 3 0 3 2 0 2 1 3 0 2 3 0 2 3 0 2 3 2 2 0 2 0 0 2 2 0 0 0 2 2 2 3 0 2 1 3 2 0 1 0 2 2 1 2 0 0 1 2 2 2 3 1 1 1 0 2 1 3 1 1 1 1
    1 1 1 3 0 0 3 2 1 1 1 1 3 2 2 0 2 0 2 3 3 1 1 3 0 3 0 0 2 2 2 0 1 1 3 0 0 3 2 3 1 1 3 2 1 3 0 0 0 0 0 0 0 0 0 2 0 0 2 2 0 3 0 2
    0 2 0 2 0 0 2 2 0 3 0 2 0 2 2 2 0 2 2 0 2 2 0 2 0 0 2 2 0 2 1 2 2 0 2 0 2 2 0 2 0 3 2 1 0 3 3 1 3 1 0 1 3 3 0 2 1 3 0 2 2 3 2 3
    2 2 0 2 0 2 0 2 0 2 0 2 0 2 3 1 0 3 2 2 3 3 0 2 2 2 0 3 1 1 0 2 0 0 3 1 2 1 1 3 1 3 3 3 0 3 1 1 3 1 0 1 1 3 3 1 3 3 1 1 3 2 1 1
    1 3 3 1 1 3 3 3 0 0 3 2 2 1 3 3 3 0 3 1 2 0 1 3 3 1 3 3 2 2 1 2 0 2 1 3 3 1 3 3 3 0 3 3 1 3 1 2 1 1 3 3 2 2 1 0 3 3 3 3 1 2 0 3
    3 0 1 3 1 1 1 2 0 0 2 2 3 3 3 3 3 3 3 3 3 3 3 3 3 3 3 3 3 3 3 3 3 3 3 3 3 3 3 3 3 3 2 1 2 0 2 2 3 2 2 2 0 3 0 0 3 0 0 0 1 2 2 0
    0 3 2 3 0 0 2 2 3 2 0 1 1 3 3 1 3 3 1 1 0 3 0 0 2 0 3 0 3 1 2 1 3 0 0 2 2 1 1 3 3 0 1 1 1 0 3 0 3 2 0 3 3 3 1 3 3 2 0 1 1 3 3 3
    3 1 3 1 1 3 3 3 0 1 3 1 0 3 1 3 1 1 3 0 3 3 1 3 0 3 1 2 1 1 3 3 0 3 0 0 1 0 1 3 0 2 1 1 1 1 0 3 2 3 3 2 2 2 1 0 3 3 3 3 1 2 0 3
    3 0 1 1 3 1 0 2 2 2 0 2 2 2 0 0 0 1 3 2 0 1 1 1 3 1 1 0 2 0 0 2 2 1 0 0 0 3 3 0 3 3 3 3 3 3 2 2 0 2 0 2 0 0 2 2 2 2 0 2 2 2 2 0
    0 0 2 1 3 2 0 1 1 1 3 1 1 0 2 0 0 2 2 1 1 0 0 0 3 3 0 3 3 3 3 3 3 2 2 0 2 0 2 0 2 0 2 2 0 2 0 2 2 2 0 2 0 3 2 2 1 0 2 3 2 2 2 2
    2 2 2 2 2 2 2 2 2 2 2 2 2 2 2 2 2 2 2 2 2 2 2 2 2 2 0 2 2 0 3 3 2 3 0 0 1 0 0 2 2 2 0 2 2 3 0 3 3 1 3 2 3 0 0 3 0 2 0 3 0 3 2 2
    0 2 0 2 0 0 2 0 0 2 2 2 3 1 2 0 1 0 0 0 0 0 0 0 0 0 2 2 0 2 0 1 0 0 0 0 0 0 2 2 2 0 2 2 2 0 2 3 2 1 0 0 2 3 3 2 0 0 3 2 1 0 2 0
    0 0 2 0 2 0 3 0 2 3 2 1 2 0 0 0 0 2 0 0 0 0 0 0 0 0 2 2 2 0 2 2 2 0 0 0 0 0 1 0 1 3 0 0 2 3 3 2 2 2 2 2 2 2 2 0 0 1 0 1 3 0 2 0
    2 2 0 0 0 2 2 0 0 2 0 0 0 2 2 2 0 0 2 2 2 2 2 1 2 2 3 3 2 0 3 2 3 0 2 3 1 1 1 2 0 0 2 0 0 0 0 2 2 3 0 1 2 0 3 0 1 3 0 1 0 0 2 2
    1 2 1 3 0 3 0 0 2 0 3 0 1 3 3 0 3 0 0 3 0 1 3 0 2 0 3 3 3 0 0 1 0 2 0 0 2 0 1 1 1 3 0 3 1 0 2 0 1 2 2 0 2 3 0 0 2 1 0 3 2 2 0 1
    0 3 3 1 2 2 2 2 2 0 2 0 1 0 0 0 0 0 0 0 0 0 0 0 0 2 2 1 2 2 2 2 2 2 2 2 2 2 2 0 2 0 0 0 0 2 2 2 2 0 2 0 0 2 0 0 2 0 2 2 2 0 2 0
    2 3 1 2 1 2 3 3 1 2 0 2 1 0 0 0 0 0 3 0 1 3 0 2 0 2 2 2 2 2 2 0 2 2 2 0 0 0 2 0 0 2 0 0 1 2 3 2 0 0 1 3 2 1 1 3 2 2 0 0 3 0 1 3
    0 2 2 1 2 2 2 2 2 2 2 2 2 2 2 1 2 1 1 0 2 0 2 1 0 0 2 2 3 0 2 0 2 0 2 2 0 0 2 0 2 3 0 0 2 0 2 1 0 1 1 1 3 0 3 1 0 0 3 0 0 0 2 1
    0 0 3 0 0 0 2 1 0 2 1 2 2 1 1 0 0 0 1 1 2 0 0 2 0 0 0 2 0 2 0 0 0 2 3 0 2 1 1 0 2 0 2 0 1 0 0 0 0 0 0 0 0 0 0 0 0 0 0 0 2 2 1 2
    0 1 2 1 1 3 0 0 0 3 3 1 3 0 2 2 2 2 2 0 2 1 2 1 3 2 2 0 2 1 2 2 0 0 0 0 1 0 0 0 0 0 0 0 0 0 0 0 0 0 0 0 0 0 0 2 2 1 2 0 0 0 2 2
    2 2 2 2 2 2 2 2 2 2 2 2 2 2 1 2 2 3 3 1 0 2 1 0 0 0 0 2 2 2 2 2 2 2 2 2 2 2 2 2 2 2 2 2 2 2 1 2 2 0 0 1 0 1 1 3 0 3 1 0 2 0 0 0
    0 1 0 0 0 1 3 2 0 2 2 2 2 2 2 2 2 2 2 2 2 2 2 2 2 2 2 2 2 2 2 1 2 2 2 0 2 1 0 2 1 2 2 0 0 0 2 0 2 0 2 2 0 0 0 0 2 0 0 2 2 0 2 2
    0 0 0 0 0 0 2 2 0 2 2 0 2 0 2 2 0 0 2 0 0 0 0 0 0 0 0 0 0 0 0 0 0 0 0 0 0 0 0 0 0 0 0 0 0 0 0 0 0 2 0 0 0 0 2 2 0 0 2 0 1 2 2 2
    0 0 2 2 0 2 2 0 0 2 2 1 2 2 0 0 0 2 2 0 2 0 0 2 0 0 2 0 0 0 2 0 0 2 2 2 2 2 2 2 0 0 2 0 2 0 0 0 2 2 2 2 2 2 2 2 2 2 2 2 0 0 2 0
    2 0 2 0 2 0 0 2 0 0 0 2 2 2 2 2 2 2 0 0 0 2 2 2 3 3 2 2 2 2 0 0 0 0 0 0 0 0 0 0 0 0 0 0 0 0 0 0 0 0 0 0 0 0 0 0 0 0 0 0 0 0 2 0
    2 2 0 2 2 0 0 0 1 0 2 0 2 0 2 0 1 0 0 0 0 0 0 0 0 0 0 0 0 0 0 0 0 0 0 0 0 0 0 0 0 0 0 0 0 0 0 2 0 0 0 0 0 0 0 0 0 0 0 0 0 0 0 0
    0 0 0 0 0 0 0 0 0 0 0 0 0 0 0 0 2 2 2 2 0 0 2 0 0 1 0 2 2 0 0 0 0 2 2 0 2 0 0 0 2 2 0 2 2 0 2 0 0 2 1 0 2 2 0 0 0 2 0 2 2 1 0 0
    0 2 2 0 0 2 2 2 2 0 2 2 2 2 2 2 2 2 2 2 2 2 2 2 2 2 2 2 2 2 2 2 2 2 2 2 0 2 2 0 0 0 2 2 2 2 2 0 0 0 2 2 2 2 2 2 2 2 2 2 0 2 0 2
    0 0 0 2 0 2 2 0 0 0 2 2 2 2 2 2 2 0 0 2 2 2 2 0 0 0 0 0 0 0 0 0 0 2 2 0 2 2 0 0 0 2 3 1 0 2 2 2 2 2 2 2 2 0 1 1 1 1 1 1 2 1 0 0
    1 2 2 2 2 2 2 2 2 2 0 2 0 3 0 0 2 2 0 0 2 0 2 3 2 0 0 2 2 0 0 2 0 2 0 0 2 1 2 1 0 0 0 0 0 2 2 0 2 2 0 2 0 2 0 2 2 0 0 2 0 3 1 0
    1 0 3 2 0 1 0 0 2 0 0 1 2 3 0 2 1 0 0 3 0 2 2 2 2 0 0 2 2 3 3 3 0 2 2 0 2 2 0 0 2 2 0 3 1 0 2 3 3 0 0 2 0 2 2 2 2 2 3 3 1 2 2 0
    1 3 1 1 1 1 0 1 0 0 0 0 0 0 0 0 0 0 0 0 0 0 0 0 0 0 0 0 0 0 0 0 0 0 0 0 0 0 2 3 2 3 1 2 2 2 0 3 1 3 3 0 2 0 0 0 1 0 0 2 0 1 1 3
    0 0 0 3 1 1 2 2 2 2 2 1 2 0 0 3 1 2 2 0 2 2 3 1 3 2 3 3 0 3 3 3 2 2 0 2 0 2 0 2 0 2 0 2 0 2 0 0 2 0 2 1 0 2 3 1 2 2 0 2 3 0 2 0
    3 2 1 3 3 0 3 1 0 2 3 3 0 1 0 0 3 2 2 0 2 2 0 3 1 2 2 2 2 0 0 3 0 3 1 0 3 3 1 3 0 3 0 1 2 0 0 0 2 0 0 3 1 2 3 3 3 0 0 2 1 0 3 1
    1 3 1 2 2 1 3 0 3 3 1 1 1 2 2 1 2 2 2 0 0 1 3 1 2 2 0 3 2 3 1 1 3 0 3 1 1 3 2 1 0 0 3 3 1 2 0 2 2 0 3 2 2 2 3 1 2 2 1 3 0 3 3 1
    2 2 2 2 0 0 1 3 0 0 1 3 0 2 2 1 0 3 1 1 3 3 2 3 1 0 1 3 1 1 3 3 1 3 1 2 2 0 3 1 1 3 1 1 3 2 3 3 0 3 3 1 1 3 3 1 3 3 1 3 1 2 1 3
    0 3 1 1 1 1 3 1 1 3 1 3 1 1 1 1 1 3 1 1 3 3 0 3 1 1 1 3 2 3 1 0 1 3 1 1 3 1 3 3 3 1 3 2 2 2 2 0 0 0 3 2 0 0 2 2 0 2 0 0 0 1 2 2
    0 2 2 2 2 2 0 0 3 0 0 1 0 1 2 2 0 2 1 0 1 2 2 0 2 0 2 2 2 0 2 0 2 2 2 0 0 2 0 0 2 0 2 0 0 3 0 3 2 1 3 3 1 2 3 0 3 0 2 2 0 2 0 0
    2 2 2 2 2 0 0 3 0 0 0 1 3 0 1 2 2 0 2 1 0 1 2 2 0 2 2 2 0 0 3 0 2 0 2 2 2 2 2 0 2 0 0 0 3 2 0 0 2 2 0 2 0 0 0 1 2 2 0 2 0 2 2 2
    0 2 0 0 2 0 0 0 2 3 0 0 2 3 0 0 2 3 0 3 0 2 0 2 1 0 2 2 0 2 3 1 2 3 0 2 2 2 0 0 2 2 0 0 2 1 2 0 0 2 3 2 2 0 2 1 0 3 3 3 1 0 1 2
    2 3 3 2 2 0 0 2 2 3 1 2 0 3 2 0 2 3 2 0 2 1 2 1 0 3 2 0 0 3 3 3 2 1 1 2 1 1 1 0 2 1 2 0 2 1 2 2 3 2 3 1 2 2 2 2 2 0 0 0 3 2 0 0
    2 2 0 2 0 0 0 1 2 2 0 2 2 2 0 2 2 2 0 0 2 0 2 0 0 2 3 0 0 2 3 0 0 2 3 0 3 3 3 3 2 2 0 2 0 2 3 0 3 1 2 3 0 3 3 1 0 3 2 2 3 1 0 3
    2 0 0 3 3 1 1 0 0 3 3 1 0 3 0 0 3 1 3 2 2 0 2 0 2 0 3 0 0 2 3 2 1 3 1 2 1 3 0 3 1 1 1 1 3 0 0 2 2 2 3 0 2 0 2 2 2 0 2 0 2 0 2 0
    2 2 0 2 0 2 0 3 0 2 0 0 1 2 0 1 3 0 0 3 1 3 0 2 3 2 3 1 3 0 2 0 1 1 1 0 0 1 0 0 1 0 3 1 1 0 2 3 2 0 0 3 3 1 2 2 2 0 2 0 0 2 0 1
    3 2 0 0 3 2 2 2 3 1 2 1 2 3 1 1 3 3 3 3 1 0 2 1 2 0 1 2 2 0 2 0 0 2 2 2 0 2 0 2 0 2 2 0 2 1 2 1 2 1 3 3 1 3 0 2 2 0 1 1 3 1 0 0
    0 0 0 1 1 3 0 0 2 0 2 2 0 2 0 1 1 2 2 2 2 2 0 2 0 2 0 0 2 2 0 0 2 2 0 0 2 2 0 2 2 0 2 3 3 2 2 0 2 0 3 0 0 0 2 2 2 1 1 1 1 1 1 2
    2 2 0 0 2 2 0 0 0 1 3 0 0 2 3 0 0 2 3 0 0 2 3 0 3 2 2 3 2 2 0 0 2 3 1 2 2 0 0 2 0 3 3 0 2 3 2 3 3 2 0 2 1 3 1 3 3 3 2 0 2 1 3 0
    2 0 0 0 3 0 2 2 0 0 2 2 2 0 2 2 2 0 3 2 0 2 0 2 1 1 1 2 2 3 3 3 3 3 3 3 3 3 3 3 3 3 3 3 2 3 0 3 0 0 0 0 2 0 3 0 3 0 2 2 0 2 2 0
    2 0 3 1 0 0 1 0 2 3 3 0 2 1 0 2 0 3 0 2 2 0 2 2 0 2 0 3 3 0 0 0 2 0 2 2 2 0 0 2 0 2 1 3 2 2 0 2 2 0 0 0 3 0 1 3 0 2 2 0 0 2 0 0
    0 0 0 0 2 2 3 2 2 2 2 0 2 2 2 2 2 2 2 2 2 2 2 2 0 0 0 0 0 0 2 0 0 2 2 0 0 2 0 2 0 0 0 0 0 0 0 0 0 0 2 0 2 2 2 2 2 2 2 2 2 0 0 0
    0 0 0 0 0 2 2 2 0 1 2 0 0 0 2 0 0 2 2 2 0 2 2 0 3 3 2 2 0 0 2 0 0 0 0 2 2 2 0 2 0 0 0 2 0 0 1 0 1 3 0 0 0 2 2 0 0 0 2 1 2 0 2 2
    3 2 0 0 2 0 0 0 0 0 0 0 2 2 0 0 0 3 3 0 2 2 0 0 0 0 1 2 2 0 2 0 0 1 0 0 0 0 2 0 2 1 2 1 3 2 0 2 2 0 2 1 2 2 2 0 2 2 2 2 2 2 2 2
    2 2 2 2 2 2 0 0 1 0 2 2 0 2 2 2 2 2 2 2 2 2 2 2 2 2 2 2 2 2 0 0 1 0 2 0 0 2 2 2 2 2 2 2 2 2 2 2 2 2 2 2 2 2 2 2 2 0 0 1 0 0 1 2
    2 2 2 2 0 2 0 0 0 3 2 0 0 2 2 0 2 0 0 0 1 2 2 0 2 2 2 0 2 2 0 0 2 0 2 0 2 0 1 0 0 2 0 3 2 0 2 0 2 0 2 0 0 0 2 0 0 1 1 1 1 1 1 1
    1 1 1 1 1 1 1 1 1 1 1 1 1 1 1 1 1 1 1 1 1 1 1 0 3 2 1 2 3 0 3 3 0 1 0 2 0 3 1 3 3 3 3 2 2 0 2 0 0 2 1 2 0 2 2 2 1 0 1 1 0 3 3 3
    2 3 2 2 0 2 0 0 2 1 3 0 3 0 0 2 3 2 3 2 2 0 2 0 0 2 2 1 1 1 0 2 2 2 2 3 3 2 3 1 1 2 2 0 0 3 1 0 3 3 1 1 2 2 2 2 0 2 0 0 0 3 2 0
    0 2 2 0 2 0 0 0 1 2 2 0 2 2 2 2 2 0 2 0 0 2 0 2 0 0 2 1 2 3 1 1 1 1 1 3 1 1 1 3 1 1 1 1 0 3 0 3 0 3 1 3 0 3 1 3 0 3 1 3 0 3 1 3
    0 3 1 3 0 3 1 3 0 3 1 3 0 3 1 3 0 3 1 2 2 0 2 0 2 0 2 0 2 0 0 2 0 2 2 2 2 0 2 0 2 0 2 2 0 0 0 2 0 2 2 2 0 0 3 0 3 0 3 1 3 0 1 3
    3 3 3 0 3 0 3 0 0 0 3 3 1 0 0 3 3 1 0 0 3 3 1 0 0 3 3 1 0 0 3 3 1 0 0 3 3 3 0 0 0 0 3 3 1 0 0 3 3 3 2 2 2 0 2 0 0 2 3 3 3 1 0 2
    3 3 2 2 0 2 0 0 2 2 2 2 2 0 0 2 1 1 3 3 1 3 2 2 2 3 3 3 3 3 0 2 3 3 2 2 0 2 0 2 0 2 1 1 2 2 2 2 2 0 0 0 3 0 0 0 2 2 0 2 0 0 0 1
    2 2 0 2 2 2 2 2 0 0 0 3 2 0 0 2 2 0 2 0 0 0 1 2 2 0 2 2 0 0 0 2 0 2 2 2 0 3 0 0 0 2 2 0 2 0 2 2 0 2 0 0 2 0 2 2 2 2 0 3 0 0 0 2
    2 0 2 0 2 0 2 0 2 2 2 2 2 0 1 2 0 3 3 1 2 3 3 2 0 2 0 3 2 3 3 0 3 2 1 0 3 2 2 0 2 0 2 2 0 2 2 2 0 2 2 2 1 2 0 3 3 3 2 3 0 3 0 2
    0 2 0 3 2 2 0 3 2 2 0 2 0 2 0 2 0 2 0 0 0 2 2 2 0 3 0 2 2 0 2 0 0 2 2 2 0 3 0 2 0 2 2 2 2 2 2 2 2 0 2 2 0 0 0 2 2 0 0 0 0 0 0 0
    0 2 2 2 2 2 0 0 2 0 2 0 2 0 0 0 0 0 2 2 2 0 0 0 0 2 2 0 2 0 2 2 2 0 2 0 0 0 2 0 1 2 0 3 2 0 0 0 1 0 1 2 0 2 0 3 2 1 2 1 0 2 3 1
    2 0 0 2 2 0 2 0 2 0 2 2 2 0 0 2 0 2 3 3 3 0 2 2 2 0 2 2 2 2 0 2 0 0 3 0 0 3 0 2 0 2 2 2 0 3 0 2 0 2 3 0 3 0 3 2 2 2 2 2 0 3 3 1
    0 2 3 2 2 0 0 0 0 0 0 0 0 0 0 0 0 0 0 0 0 0 0 0 0 0 0 0 0 0 0 0 0 0 0 0 0 0 0 0 0 0 0 0 0 0 0 0 0 0 0 0 0 0 0 0 0 0 0 0 0 0 0 0
    0 0 0 0 0 0 0 0 0 0 0 0 0 0 0 0 0 0 0 0 0 0 0 0 0 0 0 0 0 0 0 0 0 0 0 0 0 0 0 0 0 0 0 0 0 0 0 0 0 0 0 0 0 0 0 0 0 0 0 0 0 0 0 0
    0 0 0 0 0 0 0 0 0 0 0 0 0 0 0 0 0 0 0 0 0 0 0 0 0 0 0 0 0 0 0 0 0 0 3 0 0 0 0 0 0 0 0 0 0 0 0 0 0 0 0 0 0 0 0 0 0 0 0 0 0 0 0 0
    0 0 0 0 0 0 0 0 0 0 0 0 0 0 0 0 0 0 0 0 0 0 0 0 0 0 0 0 0 0 0 0 0 0 0 3 0 0 0 0 0 0 0 0 0 0 0 0 0 0 0 0 0 0 0 0 0 0 0 0 0 0 0 0
    0 0 0 0 0 0 0 0 0 0 0 0 0 0 0 0 0 0 0 0 0 0 0 0 0 0 0 0 0 0 0 0 0 0 0 0 0 0 0 0 0 0 0 0 0 0 0 0 0 0 0 0 0 0 0 0 0 0 0 0 0 0 0 0
    0 0 0 0 0 0 0 0 0 0 0 0 0 0 0 0 0 0 0 0 0 0 0 0 0 0 0 0 0 0 0 0 0 0 0 0 0 0 0 0 0 0 0 0 0 0 0 0 0 0 0 0 0 0 0 0 0 0 0 0 0 0 0 0
    0 0 0 0 0 0 0 0 0 0 0 0 0 0 0 0 0 0 0 0 0 0 0 0 0 0 0 0 0 0 0 0 0 0 0 0 0 0 0 0 0 0 0 0 0 0 0 0 0 0 0 0 0 0 0 0 0 0 0 0 0 0 0 0
    0 0 0 0 0 0 0 0 0 0 0 0 0 0 0 0 0 0 0 0 0 0 0 0 0 0 0 0 0 0 0 0 0 0 0 0 0 0 0 0 0 0 0 0 0 0 3 0 0 2 0 0 0 0 0 0 0 0 0
