############################################################
              Zynq Internal frequencies log
############################################################


PASSED 


Input Crystal Frequency:     33.333  MHz


PLL frequencies :

********************************************************************************
|                        |    ARM PLL     |   DDR_PLL     |   IO_PLL    |           
********************************************************************************
| Prog Multiplier        |            40            32            30    
| Frequency (MHz)        |      1333.333      1066.667      1000.000    
********************************************************************************



Zynq Peripherals Frequncies :
______________________________________________________________________________________________________________________________________________________

 |  Peripheral   |   Freq Requested (MHz)   |   Freq Achieved (MHz)   |   Clock source   |   Tolerance    |  Prog Divisor 1    |   Prog Divisor 2     
______________________________________________________________________________________________________________________________________________________
 | 
 |           cpu            667.000               666.667                 ARM_PLL             0.050(%)               2        
 | 
 |           ddr            533.333               533.333                 DDR_PLL             0.000(%)               2        
 | 
 |           dci             10.159                10.159                 DDR_PLL             0.003(%)              35               3        
 | 
 |          gem0             25.000                25.000                  IO_PLL             0.000(%)               8               5        
 | 
 |          uart             50.000                50.000                  IO_PLL             0.000(%)              20        
 | 
 |          pcap            200.000               200.000                  IO_PLL             0.000(%)               5        
 | 
 |         fpga0            125.000               125.000                  IO_PLL             0.000(%)               8               1        
 | 
 |         fpga1             50.000                50.000                  IO_PLL             0.000(%)              20               1        
 | 
 |         fpga2             50.000                50.000                  IO_PLL             0.000(%)              20               1        
 | 
 |         fpga3             50.000                50.000                  IO_PLL             0.000(%)              20               1        
 | 
______________________________________________________________________________________________________________________________________________________
