#-----------------------------------------------------------
# Vivado v2014.2 (64-bit)
# SW Build 932637 on Wed Jun 11 13:33:10 MDT 2014
# IP Build 924643 on Fri May 30 09:20:16 MDT 2014
# Start of session at: Mon Nov 10 13:52:34 2014
# Process ID: 5784
# Log file: F:/Geethan/hevc_ful_repo/dp/vivado.log
# Journal file: F:/Geethan/hevc_ful_repo/dp\vivado.jou
#-----------------------------------------------------------
start_gui
open_project {F:\Geethan\hevc_ful_repo\dp\dp.xpr}
CRITICAL WARNING: [Project 1-19] Could not find the file 'F:/Geethan/hevc_ful_repo/dp/dp.srcs/sources_1/bd/dp_system/ip/dp_system_mig_7series_0_0/mig_a.prj'.
CRITICAL WARNING: [Project 1-19] Could not find the file 'F:/Geethan/hevc_ful_repo/dp/dp.srcs/sources_1/bd/dp_system/ip/dp_system_mig_7series_0_0/mig_b.prj'.
Scanning sources...
Finished scanning sources
WARNING: [filemgmt 20-1763] Vivado Synthesis ignores library specification for Verilog or SystemVerilog files. [F:/Geethan/hevc_ful_repo/dp/dp.srcs/sources_1/imports/patgen/crc_16_comp.v]
WARNING: [filemgmt 20-1763] Vivado Synthesis ignores library specification for Verilog or SystemVerilog files. [F:/Geethan/hevc_ful_repo/dp/dp.srcs/sources_1/imports/vid_clk_drp/video_pixel_clk_gen.v]
WARNING: [filemgmt 20-1763] Vivado Synthesis ignores library specification for Verilog or SystemVerilog files. [F:/Geethan/hevc_ful_repo/dp/dp.srcs/sources_1/imports/vid_clk_drp/mmcm_drp_func.h]
WARNING: [filemgmt 20-1763] Vivado Synthesis ignores library specification for Verilog or SystemVerilog files. [F:/Geethan/hevc_ful_repo/dp/dp.srcs/sources_1/imports/vid_clk_drp/mmcm_drp.v]
WARNING: [filemgmt 20-1763] Vivado Synthesis ignores library specification for Verilog or SystemVerilog files. [F:/Geethan/hevc_ful_repo/dp/dp.srcs/sources_1/imports/patgen/vid_crc_16.v]
WARNING: [filemgmt 20-1763] Vivado Synthesis ignores library specification for Verilog or SystemVerilog files. [F:/Geethan/hevc_ful_repo/dp/dp.srcs/sources_1/imports/patgen/timing.v]
WARNING: [filemgmt 20-1763] Vivado Synthesis ignores library specification for Verilog or SystemVerilog files. [F:/Geethan/hevc_ful_repo/dp/dp.srcs/sources_1/imports/patgen/def.v]
WARNING: [filemgmt 20-1763] Vivado Synthesis ignores library specification for Verilog or SystemVerilog files. [F:/Geethan/hevc_ful_repo/dp/dp.srcs/sources_1/imports/patgen/regs.v]
WARNING: [filemgmt 20-1763] Vivado Synthesis ignores library specification for Verilog or SystemVerilog files. [F:/Geethan/hevc_ful_repo/dp/dp.srcs/sources_1/imports/patgen/hdclrbar.v]
WARNING: [filemgmt 20-1763] Vivado Synthesis ignores library specification for Verilog or SystemVerilog files. [F:/Geethan/hevc_ful_repo/dp/dp.srcs/sources_1/imports/patgen/dp_test_pattern.v]
WARNING: [filemgmt 20-1763] Vivado Synthesis ignores library specification for Verilog or SystemVerilog files. [F:/Geethan/hevc_ful_repo/dp/dp.srcs/sources_1/imports/vid_clk_drp/vid_clkgen.v]
WARNING: [filemgmt 20-1763] Vivado Synthesis ignores library specification for Verilog or SystemVerilog files. [F:/Geethan/hevc_ful_repo/dp/dp.srcs/sources_1/imports/patgen/video_pat_gen.v]
WARNING: [filemgmt 20-1763] Vivado Synthesis ignores library specification for Verilog or SystemVerilog files. [F:/Geethan/hevc_ful_repo/dp/dp.srcs/sources_1/imports/patgen/audio_pat_gen.v]
WARNING: [filemgmt 20-1763] Vivado Synthesis ignores library specification for Verilog or SystemVerilog files. [F:/Geethan/hevc_ful_repo/dp/dp.srcs/sources_1/bd/dp_system/hdl/dp_system_wrapper.v]
WARNING: [filemgmt 20-1763] Vivado Synthesis ignores library specification for Verilog or SystemVerilog files. [F:/Geethan/hevc_ful_repo/dp/dp.srcs/sources_1/imports/wrappers/dp_src_pm_v1_0.v]
INFO: [IP_Flow 19-234] Refreshing IP repositories
INFO: [IP_Flow 19-1704] No user IP repositories specified
INFO: [IP_Flow 19-2313] Loaded Vivado IP repository 'F:/Xilinx/Vivado/2014.2/data/ip'.
WARNING: [IP_Flow 19-3664] IP 'dp_system_microblaze_0_0' generated file not found 'f:/Geethan/hevc_ful_repo/dp/dp.srcs/sources_1/ipshared/xilinx.com/microblaze_v9_3/62751c34/data/microblaze_cw_linux_mmu.png'. Please regenerate to continue.
WARNING: [IP_Flow 19-3664] IP 'dp_system_microblaze_0_0' generated file not found 'f:/Geethan/hevc_ful_repo/dp/dp.srcs/sources_1/ipshared/xilinx.com/microblaze_v9_3/62751c34/data/microblaze_cw_logo.png'. Please regenerate to continue.
WARNING: [IP_Flow 19-3664] IP 'dp_system_microblaze_0_0' generated file not found 'f:/Geethan/hevc_ful_repo/dp/dp.srcs/sources_1/ipshared/xilinx.com/microblaze_v9_3/62751c34/data/microblaze_cw_max_freq.png'. Please regenerate to continue.
WARNING: [IP_Flow 19-3664] IP 'dp_system_microblaze_0_0' generated file not found 'f:/Geethan/hevc_ful_repo/dp/dp.srcs/sources_1/ipshared/xilinx.com/microblaze_v9_3/62751c34/data/microblaze_cw_max_perf.png'. Please regenerate to continue.
WARNING: [IP_Flow 19-3664] IP 'dp_system_microblaze_0_0' generated file not found 'f:/Geethan/hevc_ful_repo/dp/dp.srcs/sources_1/ipshared/xilinx.com/microblaze_v9_3/62751c34/data/microblaze_cw_min_area.png'. Please regenerate to continue.
WARNING: [IP_Flow 19-3664] IP 'dp_system_microblaze_0_0' generated file not found 'f:/Geethan/hevc_ful_repo/dp/dp.srcs/sources_1/ipshared/xilinx.com/microblaze_v9_3/62751c34/data/microblaze_cw_vivado.png'. Please regenerate to continue.
WARNING: [IP_Flow 19-3664] IP 'dp_system_microblaze_0_0' generated file not found 'f:/Geethan/hevc_ful_repo/dp/dp.srcs/sources_1/ipshared/xilinx.com/microblaze_v9_3/62751c34/data/microblaze_cw_ref_system.png'. Please regenerate to continue.
WARNING: [IP_Flow 19-3664] IP 'dp_system_microblaze_0_0' generated file not found 'f:/Geethan/hevc_ful_repo/dp/dp.srcs/sources_1/ipshared/xilinx.com/microblaze_v9_3/62751c34/data/microblaze_cw_typical.png'. Please regenerate to continue.
WARNING: [IP_Flow 19-3664] IP 'dp_system_processing_system7_0_0' generated file not found 'f:/Geethan/hevc_ful_repo/dp/dp.srcs/sources_1/ipshared/xilinx.com/processing_system7_v5_4/fe772633/data/zynqconfig/guidata/nand_t_ar.png'. Please regenerate to continue.
WARNING: [IP_Flow 19-3664] IP 'dp_system_processing_system7_0_0' generated file not found 'f:/Geethan/hevc_ful_repo/dp/dp.srcs/sources_1/ipshared/xilinx.com/processing_system7_v5_4/fe772633/data/zynqconfig/guidata/nand_t_clr.png'. Please regenerate to continue.
WARNING: [IP_Flow 19-3664] IP 'dp_system_processing_system7_0_0' generated file not found 'f:/Geethan/hevc_ful_repo/dp/dp.srcs/sources_1/ipshared/xilinx.com/processing_system7_v5_4/fe772633/data/zynqconfig/guidata/nand_t_rc.png'. Please regenerate to continue.
WARNING: [IP_Flow 19-3664] IP 'dp_system_processing_system7_0_0' generated file not found 'f:/Geethan/hevc_ful_repo/dp/dp.srcs/sources_1/ipshared/xilinx.com/processing_system7_v5_4/fe772633/data/zynqconfig/guidata/nand_t_rea.png'. Please regenerate to continue.
WARNING: [IP_Flow 19-3664] IP 'dp_system_processing_system7_0_0' generated file not found 'f:/Geethan/hevc_ful_repo/dp/dp.srcs/sources_1/ipshared/xilinx.com/processing_system7_v5_4/fe772633/data/zynqconfig/guidata/nand_t_rr.png'. Please regenerate to continue.
WARNING: [IP_Flow 19-3664] IP 'dp_system_processing_system7_0_0' generated file not found 'f:/Geethan/hevc_ful_repo/dp/dp.srcs/sources_1/ipshared/xilinx.com/processing_system7_v5_4/fe772633/data/zynqconfig/guidata/nand_t_wc.png'. Please regenerate to continue.
WARNING: [IP_Flow 19-3664] IP 'dp_system_processing_system7_0_0' generated file not found 'f:/Geethan/hevc_ful_repo/dp/dp.srcs/sources_1/ipshared/xilinx.com/processing_system7_v5_4/fe772633/data/zynqconfig/guidata/nand_t_wp.png'. Please regenerate to continue.
WARNING: [IP_Flow 19-3664] IP 'dp_system_processing_system7_0_0' generated file not found 'f:/Geethan/hevc_ful_repo/dp/dp.srcs/sources_1/ipshared/xilinx.com/processing_system7_v5_4/fe772633/data/zynqconfig/guidata/nor_t_ceoe.png'. Please regenerate to continue.
WARNING: [IP_Flow 19-3664] IP 'dp_system_processing_system7_0_0' generated file not found 'f:/Geethan/hevc_ful_repo/dp/dp.srcs/sources_1/ipshared/xilinx.com/processing_system7_v5_4/fe772633/data/zynqconfig/guidata/nor_t_pc.png'. Please regenerate to continue.
WARNING: [IP_Flow 19-3664] IP 'dp_system_processing_system7_0_0' generated file not found 'f:/Geethan/hevc_ful_repo/dp/dp.srcs/sources_1/ipshared/xilinx.com/processing_system7_v5_4/fe772633/data/zynqconfig/guidata/nor_t_rc.png'. Please regenerate to continue.
WARNING: [IP_Flow 19-3664] IP 'dp_system_processing_system7_0_0' generated file not found 'f:/Geethan/hevc_ful_repo/dp/dp.srcs/sources_1/ipshared/xilinx.com/processing_system7_v5_4/fe772633/data/zynqconfig/guidata/nor_t_tr.png'. Please regenerate to continue.
WARNING: [IP_Flow 19-3664] IP 'dp_system_processing_system7_0_0' generated file not found 'f:/Geethan/hevc_ful_repo/dp/dp.srcs/sources_1/ipshared/xilinx.com/processing_system7_v5_4/fe772633/data/zynqconfig/guidata/nor_t_wc.png'. Please regenerate to continue.
WARNING: [IP_Flow 19-3664] IP 'dp_system_processing_system7_0_0' generated file not found 'f:/Geethan/hevc_ful_repo/dp/dp.srcs/sources_1/ipshared/xilinx.com/processing_system7_v5_4/fe772633/data/zynqconfig/guidata/nor_t_wp.png'. Please regenerate to continue.
WARNING: [IP_Flow 19-3664] IP 'dp_system_processing_system7_0_0' generated file not found 'f:/Geethan/hevc_ful_repo/dp/dp.srcs/sources_1/ipshared/xilinx.com/processing_system7_v5_4/fe772633/data/zynqconfig/guidata/nor_we_time.png'. Please regenerate to continue.
WARNING: [IP_Flow 19-3664] IP 'dp_system_processing_system7_0_0' generated file not found 'f:/Geethan/hevc_ful_repo/dp/dp.srcs/sources_1/ipshared/xilinx.com/processing_system7_v5_4/fe772633/data/zynqconfig/guidata/zynq_100x30.png'. Please regenerate to continue.
open_project: Time (s): cpu = 00:00:30 ; elapsed = 00:00:29 . Memory (MB): peak = 1043.840 ; gain = 227.809
update_compile_order -fileset sim_1
open_bd_design {F:/Geethan/hevc_ful_repo/dp/dp.srcs/sources_1/bd/dp_system/dp_system.bd}
Adding component instance block -- xilinx.com:ip:clk_wiz:5.1 - clk_wiz_1
Adding component instance block -- xilinx.com:ip:microblaze:9.3 - microblaze_1
Adding component instance block -- xilinx.com:ip:clk_wiz:5.1 - clk_wiz_0
Adding component instance block -- xilinx.com:ip:axi_bram_ctrl:4.0 - axi_bram_ctrl_0
Adding component instance block -- xilinx.com:ip:blk_mem_gen:8.2 - axi_bram_ctrl_0_bram
Adding component instance block -- xilinx.com:ip:xlconcat:2.1 - xlconcat_1
Adding component instance block -- xilinx.com:ip:axi_iic:2.0 - axi_iic_1
Adding component instance block -- xilinx.com:ip:mdm:3.1 - mdm_1
Adding component instance block -- xilinx.com:ip:axi_intc:4.1 - axi_intc_1
Adding component instance block -- xilinx.com:ip:axi_timer:2.0 - axi_timer_1
Adding component instance block -- xilinx.com:ip:axi_apb_bridge:3.0 - axi_apb_bridge_1
Adding component instance block -- xilinx.com:ip:proc_sys_reset:5.0 - proc_sys_reset_1
Adding component instance block -- xilinx.com:ip:processing_system7:5.4 - processing_system7_0
Adding component instance block -- xilinx.com:ip:lmb_bram_if_cntlr:4.0 - lmb_bram_if_cntlr_1
Adding component instance block -- xilinx.com:ip:lmb_v10:3.0 - lmb_v10_1
Adding component instance block -- xilinx.com:ip:lmb_v10:3.0 - lmb_v10_2
Adding component instance block -- xilinx.com:ip:lmb_bram_if_cntlr:4.0 - lmb_bram_if_cntlr_2
Adding component instance block -- xilinx.com:ip:blk_mem_gen:8.2 - blk_mem_gen_1
Adding component instance block -- xilinx.com:ip:axi_crossbar:2.1 - xbar
Adding component instance block -- xilinx.com:ip:axi_protocol_converter:2.1 - auto_pc
Adding component instance block -- xilinx.com:ip:axi_protocol_converter:2.1 - auto_pc
Adding component instance block -- xilinx.com:ip:axi_crossbar:2.1 - xbar
Adding component instance block -- xilinx.com:ip:axi_clock_converter:2.1 - auto_cc
Adding component instance block -- xilinx.com:ip:axi_clock_converter:2.1 - auto_cc
Successfully read diagram <dp_system> from BD file <F:/Geethan/hevc_ful_repo/dp/dp.srcs/sources_1/bd/dp_system/dp_system.bd>
open_bd_design: Time (s): cpu = 00:00:28 ; elapsed = 00:00:29 . Memory (MB): peak = 1394.934 ; gain = 264.105
exit
INFO: [Common 17-206] Exiting Vivado at Tue Nov 11 10:06:24 2014...
