<?xml version="1.0" encoding="UTF-8"?>
<symbol version="7" name="chipscope">
    <symboltype>BLOCK</symboltype>
    <timestamp>2014-6-18T17:59:10</timestamp>
    <pin polarity="Input" x="0" y="80" name="control[35:0]" />
    <pin polarity="Input" x="0" y="112" name="clk" />
    <pin polarity="Input" x="0" y="176" name="trig0[3:0]" />
    <pin polarity="Input" x="0" y="208" name="trig1[31:0]" />
    <pin polarity="Input" x="0" y="240" name="trig2[3:0]" />
    <pin polarity="Input" x="0" y="272" name="trig3[143:0]" />
    <pin polarity="Input" x="0" y="304" name="trig4[143:0]" />
    <pin polarity="Input" x="0" y="336" name="trig5[143:0]" />
    <pin polarity="Input" x="0" y="368" name="trig6[31:0]" />
    <pin polarity="Input" x="0" y="400" name="trig7[5:0]" />
    <pin polarity="Input" x="0" y="432" name="trig8[133:0]" />
    <pin polarity="Input" x="0" y="464" name="trig9[23:0]" />
    <pin polarity="Input" x="0" y="496" name="trig10[7:0]" />
    <pin polarity="Input" x="0" y="528" name="trig11[5:0]" />
    <pin polarity="Input" x="0" y="560" name="trig12[12:0]" />
    <pin polarity="Input" x="0" y="592" name="trig13[12:0]" />
    <pin polarity="Input" x="0" y="624" name="trig14[255:0]" />
    <pin polarity="Input" x="0" y="656" name="trig15[255:0]" />
    <graph>
        <text style="fontsize:40;fontname:Arial" x="32" y="32">chipscope</text>
        <rect width="256" x="32" y="32" height="672" />
        <line x2="32" y1="80" y2="80" style="linewidth:W" x1="0" />
        <attrtext style="fontsize:24;fontname:Arial" attrname="PinName" x="36" y="80" type="pin control[35:0]" />
        <line x2="32" y1="112" y2="112" x1="0" />
        <attrtext style="fontsize:24;fontname:Arial" attrname="PinName" x="36" y="112" type="pin clk" />
        <line x2="32" y1="176" y2="176" style="linewidth:W" x1="0" />
        <attrtext style="fontsize:24;fontname:Arial" attrname="PinName" x="36" y="176" type="pin trig0[3:0]" />
        <line x2="32" y1="208" y2="208" style="linewidth:W" x1="0" />
        <attrtext style="fontsize:24;fontname:Arial" attrname="PinName" x="36" y="208" type="pin trig1[31:0]" />
        <line x2="32" y1="240" y2="240" style="linewidth:W" x1="0" />
        <attrtext style="fontsize:24;fontname:Arial" attrname="PinName" x="36" y="240" type="pin trig2[3:0]" />
        <line x2="32" y1="272" y2="272" style="linewidth:W" x1="0" />
        <attrtext style="fontsize:24;fontname:Arial" attrname="PinName" x="36" y="272" type="pin trig3[143:0]" />
        <line x2="32" y1="304" y2="304" style="linewidth:W" x1="0" />
        <attrtext style="fontsize:24;fontname:Arial" attrname="PinName" x="36" y="304" type="pin trig4[143:0]" />
        <line x2="32" y1="336" y2="336" style="linewidth:W" x1="0" />
        <attrtext style="fontsize:24;fontname:Arial" attrname="PinName" x="36" y="336" type="pin trig5[143:0]" />
        <line x2="32" y1="368" y2="368" style="linewidth:W" x1="0" />
        <attrtext style="fontsize:24;fontname:Arial" attrname="PinName" x="36" y="368" type="pin trig6[31:0]" />
        <line x2="32" y1="400" y2="400" style="linewidth:W" x1="0" />
        <attrtext style="fontsize:24;fontname:Arial" attrname="PinName" x="36" y="400" type="pin trig7[5:0]" />
        <line x2="32" y1="432" y2="432" style="linewidth:W" x1="0" />
        <attrtext style="fontsize:24;fontname:Arial" attrname="PinName" x="36" y="432" type="pin trig8[133:0]" />
        <line x2="32" y1="464" y2="464" style="linewidth:W" x1="0" />
        <attrtext style="fontsize:24;fontname:Arial" attrname="PinName" x="36" y="464" type="pin trig9[23:0]" />
        <line x2="32" y1="496" y2="496" style="linewidth:W" x1="0" />
        <attrtext style="fontsize:24;fontname:Arial" attrname="PinName" x="36" y="496" type="pin trig10[7:0]" />
        <line x2="32" y1="528" y2="528" style="linewidth:W" x1="0" />
        <attrtext style="fontsize:24;fontname:Arial" attrname="PinName" x="36" y="528" type="pin trig11[5:0]" />
        <line x2="32" y1="560" y2="560" style="linewidth:W" x1="0" />
        <attrtext style="fontsize:24;fontname:Arial" attrname="PinName" x="36" y="560" type="pin trig12[12:0]" />
        <line x2="32" y1="592" y2="592" style="linewidth:W" x1="0" />
        <attrtext style="fontsize:24;fontname:Arial" attrname="PinName" x="36" y="592" type="pin trig13[12:0]" />
        <line x2="32" y1="624" y2="624" style="linewidth:W" x1="0" />
        <attrtext style="fontsize:24;fontname:Arial" attrname="PinName" x="36" y="624" type="pin trig14[255:0]" />
        <line x2="32" y1="656" y2="656" style="linewidth:W" x1="0" />
        <attrtext style="fontsize:24;fontname:Arial" attrname="PinName" x="36" y="656" type="pin trig15[255:0]" />
    </graph>
</symbol>
